41
 193 193 193 193 193 193 193 192 132   2   3   3   3   2   3   2   2   3   2   3   3   2   3   3   2   3   3   2   3   3   2   3   3 192 193 193 193 193 193 193 193


 193 192 192 192 192 192 193 192 133   3   2   2   2   3   3   3   2   3   2   2   3   3   3   3   2   3   3   3   2   3   2   3   2 192 193 192 192 192 192 192 193


 193 192 193 193 193 192 193 192 132   3   3   2   2   3   3   3   3   2   2   3   2   2   3   2   2   2   3   2   2   2   2   2   2 192 193 192 193 193 193 192 193


 193 192 193 193 193 192 193 192 132   2   3   3   3   2   2   2   3   3   2   2   2   2   3   2   2   2   2   2   2   3   3   2   2 192 193 192 193 193 193 192 193


 193 192 193 193 193 192 193 192 132   2   3   3   3   2   3   2   2   3   3   3   3   3   2   3   3   3   2   2   2   3   3   3   2 192 193 192 193 193 193 192 193


 193 192 192 192 192 192 193 192 133   2   2   2   3   3   3   3   3   2   2   2   3   2   2   3   3   2   3   2   3   3   2   2   3 192 193 192 192 192 192 192 193


 193 193 193 193 193 193 193 192 145 144 145 144 145 144 145 144 145 144 145 144 145 144 145 144 145 144 145 144 145 144 145 144 145 192 193 193 193 193 193 193 193


 192 192 192 192 192 192 192 192 133   3   3   2   2   2   3   3   3   3   2   3   3   2   3   2   3   3   3   3   3   2   2   3   3 192 192 192 192 192 192 192 192


 132 132 132 132 133 133 145 133 132   2   2   2   3   2   2   3   2   3   3   2   3   2   2   2   2   3   3   2   2   2   2   2   2 132 133 133 132 132 132 133 132


   2   2   3   2   2   2 144   2   3   2   3   2   2   2   2   2   3   3   2   2   2   3   3   3   3   2   2   2   3   2   3   3   3   3   2   2   3   2   2   2   2


   3   3   3   2   3   3 145   3   3   3   2   2   3   3   3   2   3   3   2   3   2   3   3   3   3   2   2   2   3   3   2   2   3   2   2   2   2   2   3   2   2


   2   3   3   3   2   3 144   2   2   2   3   3   3   3   2   2   2   2   2   2   2   2   2   3   2   2   2   2   2   3   3   2   2   3   2   3   2   2   3   3   2


   2   3   2   2   2   3 145   3   2   3   3   3   2   2   3   3   2   2   2   2   3   2   3   3   3   2   3   3   2   2   3   3   2   3   3   2   3   3   2   3   3


   3   3   2   2   2   3 144   3   2   3   3   3   2   3   2   3   3   2   3   3   2   2   2   3   3   3   2   2   3   3   2   3   3   2   2   3   2   3   3   3   2


   2   3   2   2   3   3 145   3   2   3   3   3   2   2   3   2   3   3   2   2   2   2   2   3   2   3   2   2   3   2   3   2   3   2   2   3   3   3   2   3   3


   2   3   3   2   2   2 144   2   2   2   3   2   2   3   3   3   2   2   2   3   3   2   2   3   2   2   2   2   2   2   2   2   2   3   2   2   3   2   2   2   3


   2   3   2   2   2   3 145   3   3   2   3   2   3   2   2   3   2   2   3   2   2   3   2   3   3   2   2   3   3   2   2   3   3   3   3   3   3   2   3   2   2


   2   2   2   3   2   2 144   2   2   2   3   3   3   2   3   3   3   3   2   3   3   3   2   3   2   2   2   2   2   2   3   3   2   2   2   2   3   2   2   2   2


   2   2   3   2   3   2 145   3   2   3   2   3   3   3   3   2   3   3   2   2   2   3   3   3   3   2   2   3   2   3   2   3   2   3   3   2   2   2   3   2   2


   2   2   3   2   2   3 144   2   2   2   3   3   3   3   2   2   2   2   2   3   3   2   2   2   2   2   2   3   3   3   3   3   3   2   3   3   2   3   3   3   2


   3   3   3   2   2   3 145   2   3   3   3   3   2   2   3   3   2   2   2   3   3   2   3   3   3   2   3   2   2   2   3   2   2   2   2   3   3   3   3   3   3


   2   2   3   3   3   3 144   2   2   2   3   3   2   3   2   3   3   2   3   3   2   3   2   3   3   3   2   2   3   2   2   3   3   3   2   2   3   3   3   2   2


   3   2   2   2   3   2 145   2   2   2   3   3   2   3   3   2   3   2   3   2   2   3   2   3   2   3   2   2   3   3   2   2   3   2   2   2   2   3   2   3   3


   3   2   2   3   3   2 144   2   3   2   2   2   2   3   3   3   2   2   2   3   3   3   2   3   2   3   2   2   2   3   3   2   2   3   2   3   2   2   2   2   3


   3   3   3   3   2   2 145   2   3   2   3   2   2   3   2   3   2   3   3   2   2   3   2   3   3   3   2   3   3   2   3   3   3   3   3   2   3   2   3   2   2


   2   3   2   3   2   2 144   3   2   2   2   3   3   3   2   3   2   3   2   3   2   2   3   3   2   2   2   2   2   3   2   3   2   2   2   3   2   3   3   3   2


   2   2   3   2   3   2 145   2   2   2   2   3   2   3   2   2   2   2   2   3   3   3   3   3   3   3   2   3   2   2   3   3   2   3   3   3   3   3   3   3   3


   2   2   3   2   2   3 144   3   2   2   2   3   2   3   2   2   3   2   3   3   2   2   3   3   2   3   3   3   3   2   2   3   3   2   3   2   3   2   2   2   3


   3   3   3   2   2   3 145   3   3   2   2   2   2   2   2   3   3   3   2   3   3   2   2   3   2   2   3   2   3   2   2   2   3   2   2   3   3   3   3   2   2


   3   2   3   3   3   3 144   2   2   3   3   2   3   2   3   3   3   2   2   2   2   2   3   3   2   2   3   2   2   2   3   3   2   3   2   2   3   2   2   2   2


   2   2   2   2   2   3 145   2   2   2   2   3   2   3   2   2   2   2   3   2   2   3   2   2   2   3   2   3   2   3   2   3   2   3   3   2   2   2   3   2   2


   2   2   2   3   3   2 144   2   3   3   2   3   2   3   2   3   2   2   2   2   2   2   3   3   2   2   3   3   3   3   3   3   3   2   3   3   2   3   3   3   2


   3   3   3   2   3   3 145   2   2   2   3   2   2   3   2   3   2   3   2   2   2   3   3   3   2   3   2   2   2   2   3   2 161 161 161 161 161   3   3   3   3


 192 192 192 192 192 192 192 192 129   2   2   2   2   3   2   3   3   3   3   2   2   2   2   2   3   2   3   2   3   3   2   2 161 160 160 160 161   3   3   3   2


 193 193 193 193 193 193 193 192 133   2   2   3   3   3   2   2   3   2   2   2   2   3   3   3   2   3   2   2   3   2   3   2 161 160 161 160 161   3   2   3   3


 193 192 192 192 192 192 193 192 133   2   2   2   2   3   2   3   3   2   3   3   2   2   3   3   2   3   3   2   2   2   2   2 161 160 160 160 161   2   2   2   3


 193 192 193 193 193 192 193 192 133   2   2   3   2   2   2   3   3   3   2   3   3   2   2   2   2   2   3   3   3   2   2   3 161 161 161 161 161   2   3   2   2


 193 192 193 193 193 192 193 192 132   2   3   2   3   2   3   3   3   2   2   2   2   3   3   3   2   2   3   2   2   3   3   2   3   2   2   2   3   2   2   2   2


 193 192 193 193 193 192 193 192 132   3   3   3   2   2   3   2   2   2   2   2   2   2   2   2   2   2   3   3   2   2   3   2   2   2   3   2   3   2   3   3   3


 193 192 192 192 192 192 193 192 132   3   2   3   2   3   2   3   2   2   3   2   2   3   3   3   2   3   2   3   3   2   2   2   2   2   2   3   3   3   3   2   3


 193 193 193 193 193 193 193 192 132   2   3   2   2   3   3   3   2   3   3   2   3   2   2   3   3   2   3   2   2   2   2   2   2   2   3   3   2   3   3   2   2


