^G:\CODE\QT\UI1\UI1\UI1.H
"D:\QT\5.6\msvc2015_64\bin\moc.exe"  "G:\code\QT\ui1\ui1\ui1.h" -o ".\GeneratedFiles\Debug\moc_ui1.cpp"  -DUNICODE -DWIN32 -DQT_DLL -DQT_CORE_LIB -DQT_GUI_LIB -DQT_WIDGETS_LIB  "-ID:\opencv\opencv\build\include\opencv2" "-ID:\opencv\opencv\build\include\opencv" "-ID:\opencv\opencv\build\include" "-I.\GeneratedFiles" "-I." "-ID:\QT\5.6\msvc2015_64\include" "-I.\GeneratedFiles\Debug\." "-ID:\QT\5.6\msvc2015_64\include\QtCore" "-ID:\QT\5.6\msvc2015_64\include\QtGui" "-ID:\QT\5.6\msvc2015_64\include\QtWidgets"
^G:\CODE\QT\UI1\UI1\UI1.UI
"D:\QT\5.6\msvc2015_64\bin\uic.exe" -o ".\GeneratedFiles\ui_ui1.h" "G:\code\QT\ui1\ui1\ui1.ui"
^G:\CODE\QT\UI1\UI1\UI1.QRC
"D:\QT\5.6\msvc2015_64\bin\rcc.exe" -name "ui1" -no-compress "G:\code\QT\ui1\ui1\ui1.qrc" -o .\GeneratedFiles\qrc_ui1.cpp
