^G:\CODE\QT\UI1\UI1\UI1.UI
G:\CODE\QT\UI1\UI1\GENERATEDFILES\UI_UI1.H
^G:\CODE\QT\UI1\UI1\UI1.QRC
G:\CODE\QT\UI1\UI1\GENERATEDFILES\QRC_UI1.CPP
^G:\CODE\QT\UI1\UI1\UI1.H
G:\CODE\QT\UI1\UI1\GENERATEDFILES\DEBUG\MOC_UI1.CPP
