^G:\CODE\QT\UI1\UI1\X64\DEBUG\BITSTREAM.OBJ|G:\CODE\QT\UI1\UI1\X64\DEBUG\MAIN.OBJ|G:\CODE\QT\UI1\UI1\X64\DEBUG\MASK.OBJ|G:\CODE\QT\UI1\UI1\X64\DEBUG\MMASK.OBJ|G:\CODE\QT\UI1\UI1\X64\DEBUG\MOC_UI1.OBJ|G:\CODE\QT\UI1\UI1\X64\DEBUG\MQRSPEC.OBJ|G:\CODE\QT\UI1\UI1\X64\DEBUG\QRC_UI1.OBJ|G:\CODE\QT\UI1\UI1\X64\DEBUG\QRENCODE.OBJ|G:\CODE\QT\UI1\UI1\X64\DEBUG\QRINPUT.OBJ|G:\CODE\QT\UI1\UI1\X64\DEBUG\QRSPEC.OBJ|G:\CODE\QT\UI1\UI1\X64\DEBUG\RSECC.OBJ|G:\CODE\QT\UI1\UI1\X64\DEBUG\SPLIT.OBJ|G:\CODE\QT\UI1\UI1\X64\DEBUG\UI1.OBJ
C:\WINDOWS\GLOBALIZATION\SORTING\SORTDEFAULT.NLS
D:\QT\5.6\MSVC2015_64\LIB\QTMAIND.LIB
D:\QT\5.6\MSVC2015_64\LIB\QT5CORED.LIB
D:\QT\5.6\MSVC2015_64\LIB\QT5GUID.LIB
D:\QT\5.6\MSVC2015_64\LIB\QT5WIDGETSD.LIB
D:\OPENCV\OPENCV\BUILD\X64\VC14\LIB\OPENCV_WORLD310D.LIB
C:\PROGRAM FILES (X86)\WINDOWS KITS\8.1\LIB\WINV6.3\UM\X64\KERNEL32.LIB
C:\PROGRAM FILES (X86)\WINDOWS KITS\8.1\LIB\WINV6.3\UM\X64\USER32.LIB
C:\PROGRAM FILES (X86)\WINDOWS KITS\8.1\LIB\WINV6.3\UM\X64\GDI32.LIB
C:\PROGRAM FILES (X86)\WINDOWS KITS\8.1\LIB\WINV6.3\UM\X64\WINSPOOL.LIB
C:\PROGRAM FILES (X86)\WINDOWS KITS\8.1\LIB\WINV6.3\UM\X64\COMDLG32.LIB
C:\PROGRAM FILES (X86)\WINDOWS KITS\8.1\LIB\WINV6.3\UM\X64\ADVAPI32.LIB
C:\PROGRAM FILES (X86)\WINDOWS KITS\8.1\LIB\WINV6.3\UM\X64\SHELL32.LIB
C:\PROGRAM FILES (X86)\WINDOWS KITS\8.1\LIB\WINV6.3\UM\X64\OLE32.LIB
C:\PROGRAM FILES (X86)\WINDOWS KITS\8.1\LIB\WINV6.3\UM\X64\OLEAUT32.LIB
C:\PROGRAM FILES (X86)\WINDOWS KITS\8.1\LIB\WINV6.3\UM\X64\UUID.LIB
C:\PROGRAM FILES (X86)\WINDOWS KITS\8.1\LIB\WINV6.3\UM\X64\ODBC32.LIB
C:\PROGRAM FILES (X86)\WINDOWS KITS\8.1\LIB\WINV6.3\UM\X64\ODBCCP32.LIB
G:\CODE\QT\UI1\UI1\X64\DEBUG\BITSTREAM.OBJ
G:\CODE\QT\UI1\UI1\X64\DEBUG\MOC_UI1.OBJ
G:\CODE\QT\UI1\UI1\X64\DEBUG\QRC_UI1.OBJ
G:\CODE\QT\UI1\UI1\X64\DEBUG\MAIN.OBJ
G:\CODE\QT\UI1\UI1\X64\DEBUG\MASK.OBJ
G:\CODE\QT\UI1\UI1\X64\DEBUG\MMASK.OBJ
G:\CODE\QT\UI1\UI1\X64\DEBUG\MQRSPEC.OBJ
G:\CODE\QT\UI1\UI1\X64\DEBUG\QRENCODE.OBJ
G:\CODE\QT\UI1\UI1\X64\DEBUG\QRINPUT.OBJ
G:\CODE\QT\UI1\UI1\X64\DEBUG\QRSPEC.OBJ
G:\CODE\QT\UI1\UI1\X64\DEBUG\RSECC.OBJ
G:\CODE\QT\UI1\UI1\X64\DEBUG\SPLIT.OBJ
G:\CODE\QT\UI1\UI1\X64\DEBUG\UI1.OBJ
C:\WINDOWS\SYSTEM32\TZRES.DLL
D:\VS\VC\LIB\AMD64\MSVCRTD.LIB
D:\VS\VC\LIB\AMD64\OLDNAMES.LIB
D:\VS\VC\LIB\AMD64\MSVCPRTD.LIB
D:\VS\VC\LIB\AMD64\VCRUNTIMED.LIB
C:\PROGRAM FILES (X86)\WINDOWS KITS\10\LIB\10.0.10240.0\UCRT\X64\UCRTD.LIB
