^G:\CODE\QT\UI1\UI1\BITSTREAM.C
C:\PROGRAM FILES (X86)\WINDOWS KITS\10\INCLUDE\10.0.10240.0\UCRT\STDIO.H
C:\PROGRAM FILES (X86)\WINDOWS KITS\10\INCLUDE\10.0.10240.0\UCRT\CORECRT.H
D:\VS\VC\INCLUDE\VCRUNTIME.H
D:\VS\VC\INCLUDE\SAL.H
D:\VS\VC\INCLUDE\CONCURRENCYSAL.H
D:\VS\VC\INCLUDE\VADEFS.H
C:\PROGRAM FILES (X86)\WINDOWS KITS\10\INCLUDE\10.0.10240.0\UCRT\CORECRT_WSTDIO.H
C:\PROGRAM FILES (X86)\WINDOWS KITS\10\INCLUDE\10.0.10240.0\UCRT\CORECRT_STDIO_CONFIG.H
C:\PROGRAM FILES (X86)\WINDOWS KITS\10\INCLUDE\10.0.10240.0\UCRT\STDLIB.H
C:\PROGRAM FILES (X86)\WINDOWS KITS\10\INCLUDE\10.0.10240.0\UCRT\CORECRT_MALLOC.H
C:\PROGRAM FILES (X86)\WINDOWS KITS\10\INCLUDE\10.0.10240.0\UCRT\CORECRT_SEARCH.H
C:\PROGRAM FILES (X86)\WINDOWS KITS\10\INCLUDE\10.0.10240.0\UCRT\STDDEF.H
C:\PROGRAM FILES (X86)\WINDOWS KITS\10\INCLUDE\10.0.10240.0\UCRT\CORECRT_WSTDLIB.H
D:\VS\VC\INCLUDE\LIMITS.H
C:\PROGRAM FILES (X86)\WINDOWS KITS\10\INCLUDE\10.0.10240.0\UCRT\STRING.H
C:\PROGRAM FILES (X86)\WINDOWS KITS\10\INCLUDE\10.0.10240.0\UCRT\CORECRT_MEMORY.H
C:\PROGRAM FILES (X86)\WINDOWS KITS\10\INCLUDE\10.0.10240.0\UCRT\CORECRT_MEMCPY_S.H
C:\PROGRAM FILES (X86)\WINDOWS KITS\10\INCLUDE\10.0.10240.0\UCRT\ERRNO.H
D:\VS\VC\INCLUDE\VCRUNTIME_STRING.H
C:\PROGRAM FILES (X86)\WINDOWS KITS\10\INCLUDE\10.0.10240.0\UCRT\CORECRT_WSTRING.H
G:\CODE\QT\UI1\UI1\BITSTREAM.H
^G:\CODE\QT\UI1\UI1\MASK.C
G:\CODE\QT\UI1\UI1\CONFIG.H
C:\PROGRAM FILES (X86)\WINDOWS KITS\10\INCLUDE\10.0.10240.0\UCRT\STDLIB.H
C:\PROGRAM FILES (X86)\WINDOWS KITS\10\INCLUDE\10.0.10240.0\UCRT\CORECRT.H
D:\VS\VC\INCLUDE\VCRUNTIME.H
D:\VS\VC\INCLUDE\SAL.H
D:\VS\VC\INCLUDE\CONCURRENCYSAL.H
D:\VS\VC\INCLUDE\VADEFS.H
C:\PROGRAM FILES (X86)\WINDOWS KITS\10\INCLUDE\10.0.10240.0\UCRT\CORECRT_MALLOC.H
C:\PROGRAM FILES (X86)\WINDOWS KITS\10\INCLUDE\10.0.10240.0\UCRT\CORECRT_SEARCH.H
C:\PROGRAM FILES (X86)\WINDOWS KITS\10\INCLUDE\10.0.10240.0\UCRT\STDDEF.H
C:\PROGRAM FILES (X86)\WINDOWS KITS\10\INCLUDE\10.0.10240.0\UCRT\CORECRT_WSTDLIB.H
D:\VS\VC\INCLUDE\LIMITS.H
C:\PROGRAM FILES (X86)\WINDOWS KITS\10\INCLUDE\10.0.10240.0\UCRT\STRING.H
C:\PROGRAM FILES (X86)\WINDOWS KITS\10\INCLUDE\10.0.10240.0\UCRT\CORECRT_MEMORY.H
C:\PROGRAM FILES (X86)\WINDOWS KITS\10\INCLUDE\10.0.10240.0\UCRT\CORECRT_MEMCPY_S.H
C:\PROGRAM FILES (X86)\WINDOWS KITS\10\INCLUDE\10.0.10240.0\UCRT\ERRNO.H
D:\VS\VC\INCLUDE\VCRUNTIME_STRING.H
C:\PROGRAM FILES (X86)\WINDOWS KITS\10\INCLUDE\10.0.10240.0\UCRT\CORECRT_WSTRING.H
G:\CODE\QT\UI1\UI1\QRENCODE.H
G:\CODE\QT\UI1\UI1\QRSPEC.H
G:\CODE\QT\UI1\UI1\MASK.H
^G:\CODE\QT\UI1\UI1\MMASK.C
C:\PROGRAM FILES (X86)\WINDOWS KITS\10\INCLUDE\10.0.10240.0\UCRT\STDLIB.H
C:\PROGRAM FILES (X86)\WINDOWS KITS\10\INCLUDE\10.0.10240.0\UCRT\CORECRT.H
D:\VS\VC\INCLUDE\VCRUNTIME.H
D:\VS\VC\INCLUDE\SAL.H
D:\VS\VC\INCLUDE\CONCURRENCYSAL.H
D:\VS\VC\INCLUDE\VADEFS.H
C:\PROGRAM FILES (X86)\WINDOWS KITS\10\INCLUDE\10.0.10240.0\UCRT\CORECRT_MALLOC.H
C:\PROGRAM FILES (X86)\WINDOWS KITS\10\INCLUDE\10.0.10240.0\UCRT\CORECRT_SEARCH.H
C:\PROGRAM FILES (X86)\WINDOWS KITS\10\INCLUDE\10.0.10240.0\UCRT\STDDEF.H
C:\PROGRAM FILES (X86)\WINDOWS KITS\10\INCLUDE\10.0.10240.0\UCRT\CORECRT_WSTDLIB.H
D:\VS\VC\INCLUDE\LIMITS.H
C:\PROGRAM FILES (X86)\WINDOWS KITS\10\INCLUDE\10.0.10240.0\UCRT\STRING.H
C:\PROGRAM FILES (X86)\WINDOWS KITS\10\INCLUDE\10.0.10240.0\UCRT\CORECRT_MEMORY.H
C:\PROGRAM FILES (X86)\WINDOWS KITS\10\INCLUDE\10.0.10240.0\UCRT\CORECRT_MEMCPY_S.H
C:\PROGRAM FILES (X86)\WINDOWS KITS\10\INCLUDE\10.0.10240.0\UCRT\ERRNO.H
D:\VS\VC\INCLUDE\VCRUNTIME_STRING.H
C:\PROGRAM FILES (X86)\WINDOWS KITS\10\INCLUDE\10.0.10240.0\UCRT\CORECRT_WSTRING.H
G:\CODE\QT\UI1\UI1\QRENCODE.H
G:\CODE\QT\UI1\UI1\MQRSPEC.H
G:\CODE\QT\UI1\UI1\MMASK.H
^G:\CODE\QT\UI1\UI1\MQRSPEC.C
C:\PROGRAM FILES (X86)\WINDOWS KITS\10\INCLUDE\10.0.10240.0\UCRT\STDIO.H
C:\PROGRAM FILES (X86)\WINDOWS KITS\10\INCLUDE\10.0.10240.0\UCRT\CORECRT.H
D:\VS\VC\INCLUDE\VCRUNTIME.H
D:\VS\VC\INCLUDE\SAL.H
D:\VS\VC\INCLUDE\CONCURRENCYSAL.H
D:\VS\VC\INCLUDE\VADEFS.H
C:\PROGRAM FILES (X86)\WINDOWS KITS\10\INCLUDE\10.0.10240.0\UCRT\CORECRT_WSTDIO.H
C:\PROGRAM FILES (X86)\WINDOWS KITS\10\INCLUDE\10.0.10240.0\UCRT\CORECRT_STDIO_CONFIG.H
C:\PROGRAM FILES (X86)\WINDOWS KITS\10\INCLUDE\10.0.10240.0\UCRT\STDLIB.H
C:\PROGRAM FILES (X86)\WINDOWS KITS\10\INCLUDE\10.0.10240.0\UCRT\CORECRT_MALLOC.H
C:\PROGRAM FILES (X86)\WINDOWS KITS\10\INCLUDE\10.0.10240.0\UCRT\CORECRT_SEARCH.H
C:\PROGRAM FILES (X86)\WINDOWS KITS\10\INCLUDE\10.0.10240.0\UCRT\STDDEF.H
C:\PROGRAM FILES (X86)\WINDOWS KITS\10\INCLUDE\10.0.10240.0\UCRT\CORECRT_WSTDLIB.H
D:\VS\VC\INCLUDE\LIMITS.H
C:\PROGRAM FILES (X86)\WINDOWS KITS\10\INCLUDE\10.0.10240.0\UCRT\STRING.H
C:\PROGRAM FILES (X86)\WINDOWS KITS\10\INCLUDE\10.0.10240.0\UCRT\CORECRT_MEMORY.H
C:\PROGRAM FILES (X86)\WINDOWS KITS\10\INCLUDE\10.0.10240.0\UCRT\CORECRT_MEMCPY_S.H
C:\PROGRAM FILES (X86)\WINDOWS KITS\10\INCLUDE\10.0.10240.0\UCRT\ERRNO.H
D:\VS\VC\INCLUDE\VCRUNTIME_STRING.H
C:\PROGRAM FILES (X86)\WINDOWS KITS\10\INCLUDE\10.0.10240.0\UCRT\CORECRT_WSTRING.H
G:\CODE\QT\UI1\UI1\MQRSPEC.H
G:\CODE\QT\UI1\UI1\QRENCODE.H
^G:\CODE\QT\UI1\UI1\QRENCODE.C
G:\CODE\QT\UI1\UI1\CONFIG.H
C:\PROGRAM FILES (X86)\WINDOWS KITS\10\INCLUDE\10.0.10240.0\UCRT\STDIO.H
C:\PROGRAM FILES (X86)\WINDOWS KITS\10\INCLUDE\10.0.10240.0\UCRT\CORECRT.H
D:\VS\VC\INCLUDE\VCRUNTIME.H
D:\VS\VC\INCLUDE\SAL.H
D:\VS\VC\INCLUDE\CONCURRENCYSAL.H
D:\VS\VC\INCLUDE\VADEFS.H
C:\PROGRAM FILES (X86)\WINDOWS KITS\10\INCLUDE\10.0.10240.0\UCRT\CORECRT_WSTDIO.H
C:\PROGRAM FILES (X86)\WINDOWS KITS\10\INCLUDE\10.0.10240.0\UCRT\CORECRT_STDIO_CONFIG.H
C:\PROGRAM FILES (X86)\WINDOWS KITS\10\INCLUDE\10.0.10240.0\UCRT\STDLIB.H
C:\PROGRAM FILES (X86)\WINDOWS KITS\10\INCLUDE\10.0.10240.0\UCRT\CORECRT_MALLOC.H
C:\PROGRAM FILES (X86)\WINDOWS KITS\10\INCLUDE\10.0.10240.0\UCRT\CORECRT_SEARCH.H
C:\PROGRAM FILES (X86)\WINDOWS KITS\10\INCLUDE\10.0.10240.0\UCRT\STDDEF.H
C:\PROGRAM FILES (X86)\WINDOWS KITS\10\INCLUDE\10.0.10240.0\UCRT\CORECRT_WSTDLIB.H
D:\VS\VC\INCLUDE\LIMITS.H
C:\PROGRAM FILES (X86)\WINDOWS KITS\10\INCLUDE\10.0.10240.0\UCRT\STRING.H
C:\PROGRAM FILES (X86)\WINDOWS KITS\10\INCLUDE\10.0.10240.0\UCRT\CORECRT_MEMORY.H
C:\PROGRAM FILES (X86)\WINDOWS KITS\10\INCLUDE\10.0.10240.0\UCRT\CORECRT_MEMCPY_S.H
C:\PROGRAM FILES (X86)\WINDOWS KITS\10\INCLUDE\10.0.10240.0\UCRT\ERRNO.H
D:\VS\VC\INCLUDE\VCRUNTIME_STRING.H
C:\PROGRAM FILES (X86)\WINDOWS KITS\10\INCLUDE\10.0.10240.0\UCRT\CORECRT_WSTRING.H
G:\CODE\QT\UI1\UI1\QRENCODE.H
G:\CODE\QT\UI1\UI1\QRSPEC.H
G:\CODE\QT\UI1\UI1\MQRSPEC.H
G:\CODE\QT\UI1\UI1\BITSTREAM.H
G:\CODE\QT\UI1\UI1\QRINPUT.H
G:\CODE\QT\UI1\UI1\RSECC.H
G:\CODE\QT\UI1\UI1\SPLIT.H
G:\CODE\QT\UI1\UI1\MASK.H
G:\CODE\QT\UI1\UI1\MMASK.H
^G:\CODE\QT\UI1\UI1\QRINPUT.C
C:\PROGRAM FILES (X86)\WINDOWS KITS\10\INCLUDE\10.0.10240.0\UCRT\STDIO.H
C:\PROGRAM FILES (X86)\WINDOWS KITS\10\INCLUDE\10.0.10240.0\UCRT\CORECRT.H
D:\VS\VC\INCLUDE\VCRUNTIME.H
D:\VS\VC\INCLUDE\SAL.H
D:\VS\VC\INCLUDE\CONCURRENCYSAL.H
D:\VS\VC\INCLUDE\VADEFS.H
C:\PROGRAM FILES (X86)\WINDOWS KITS\10\INCLUDE\10.0.10240.0\UCRT\CORECRT_WSTDIO.H
C:\PROGRAM FILES (X86)\WINDOWS KITS\10\INCLUDE\10.0.10240.0\UCRT\CORECRT_STDIO_CONFIG.H
C:\PROGRAM FILES (X86)\WINDOWS KITS\10\INCLUDE\10.0.10240.0\UCRT\STDLIB.H
C:\PROGRAM FILES (X86)\WINDOWS KITS\10\INCLUDE\10.0.10240.0\UCRT\CORECRT_MALLOC.H
C:\PROGRAM FILES (X86)\WINDOWS KITS\10\INCLUDE\10.0.10240.0\UCRT\CORECRT_SEARCH.H
C:\PROGRAM FILES (X86)\WINDOWS KITS\10\INCLUDE\10.0.10240.0\UCRT\STDDEF.H
C:\PROGRAM FILES (X86)\WINDOWS KITS\10\INCLUDE\10.0.10240.0\UCRT\CORECRT_WSTDLIB.H
D:\VS\VC\INCLUDE\LIMITS.H
C:\PROGRAM FILES (X86)\WINDOWS KITS\10\INCLUDE\10.0.10240.0\UCRT\STRING.H
C:\PROGRAM FILES (X86)\WINDOWS KITS\10\INCLUDE\10.0.10240.0\UCRT\CORECRT_MEMORY.H
C:\PROGRAM FILES (X86)\WINDOWS KITS\10\INCLUDE\10.0.10240.0\UCRT\CORECRT_MEMCPY_S.H
C:\PROGRAM FILES (X86)\WINDOWS KITS\10\INCLUDE\10.0.10240.0\UCRT\ERRNO.H
D:\VS\VC\INCLUDE\VCRUNTIME_STRING.H
C:\PROGRAM FILES (X86)\WINDOWS KITS\10\INCLUDE\10.0.10240.0\UCRT\CORECRT_WSTRING.H
G:\CODE\QT\UI1\UI1\QRENCODE.H
G:\CODE\QT\UI1\UI1\QRSPEC.H
G:\CODE\QT\UI1\UI1\MQRSPEC.H
G:\CODE\QT\UI1\UI1\BITSTREAM.H
G:\CODE\QT\UI1\UI1\QRINPUT.H
^G:\CODE\QT\UI1\UI1\QRSPEC.C
C:\PROGRAM FILES (X86)\WINDOWS KITS\10\INCLUDE\10.0.10240.0\UCRT\STDIO.H
C:\PROGRAM FILES (X86)\WINDOWS KITS\10\INCLUDE\10.0.10240.0\UCRT\CORECRT.H
D:\VS\VC\INCLUDE\VCRUNTIME.H
D:\VS\VC\INCLUDE\SAL.H
D:\VS\VC\INCLUDE\CONCURRENCYSAL.H
D:\VS\VC\INCLUDE\VADEFS.H
C:\PROGRAM FILES (X86)\WINDOWS KITS\10\INCLUDE\10.0.10240.0\UCRT\CORECRT_WSTDIO.H
C:\PROGRAM FILES (X86)\WINDOWS KITS\10\INCLUDE\10.0.10240.0\UCRT\CORECRT_STDIO_CONFIG.H
C:\PROGRAM FILES (X86)\WINDOWS KITS\10\INCLUDE\10.0.10240.0\UCRT\STDLIB.H
C:\PROGRAM FILES (X86)\WINDOWS KITS\10\INCLUDE\10.0.10240.0\UCRT\CORECRT_MALLOC.H
C:\PROGRAM FILES (X86)\WINDOWS KITS\10\INCLUDE\10.0.10240.0\UCRT\CORECRT_SEARCH.H
C:\PROGRAM FILES (X86)\WINDOWS KITS\10\INCLUDE\10.0.10240.0\UCRT\STDDEF.H
C:\PROGRAM FILES (X86)\WINDOWS KITS\10\INCLUDE\10.0.10240.0\UCRT\CORECRT_WSTDLIB.H
D:\VS\VC\INCLUDE\LIMITS.H
C:\PROGRAM FILES (X86)\WINDOWS KITS\10\INCLUDE\10.0.10240.0\UCRT\STRING.H
C:\PROGRAM FILES (X86)\WINDOWS KITS\10\INCLUDE\10.0.10240.0\UCRT\CORECRT_MEMORY.H
C:\PROGRAM FILES (X86)\WINDOWS KITS\10\INCLUDE\10.0.10240.0\UCRT\CORECRT_MEMCPY_S.H
C:\PROGRAM FILES (X86)\WINDOWS KITS\10\INCLUDE\10.0.10240.0\UCRT\ERRNO.H
D:\VS\VC\INCLUDE\VCRUNTIME_STRING.H
C:\PROGRAM FILES (X86)\WINDOWS KITS\10\INCLUDE\10.0.10240.0\UCRT\CORECRT_WSTRING.H
G:\CODE\QT\UI1\UI1\QRSPEC.H
G:\CODE\QT\UI1\UI1\QRENCODE.H
G:\CODE\QT\UI1\UI1\QRINPUT.H
G:\CODE\QT\UI1\UI1\BITSTREAM.H
^G:\CODE\QT\UI1\UI1\RSECC.C
C:\PROGRAM FILES (X86)\WINDOWS KITS\10\INCLUDE\10.0.10240.0\UCRT\STDLIB.H
C:\PROGRAM FILES (X86)\WINDOWS KITS\10\INCLUDE\10.0.10240.0\UCRT\CORECRT.H
D:\VS\VC\INCLUDE\VCRUNTIME.H
D:\VS\VC\INCLUDE\SAL.H
D:\VS\VC\INCLUDE\CONCURRENCYSAL.H
D:\VS\VC\INCLUDE\VADEFS.H
C:\PROGRAM FILES (X86)\WINDOWS KITS\10\INCLUDE\10.0.10240.0\UCRT\CORECRT_MALLOC.H
C:\PROGRAM FILES (X86)\WINDOWS KITS\10\INCLUDE\10.0.10240.0\UCRT\CORECRT_SEARCH.H
C:\PROGRAM FILES (X86)\WINDOWS KITS\10\INCLUDE\10.0.10240.0\UCRT\STDDEF.H
C:\PROGRAM FILES (X86)\WINDOWS KITS\10\INCLUDE\10.0.10240.0\UCRT\CORECRT_WSTDLIB.H
D:\VS\VC\INCLUDE\LIMITS.H
C:\PROGRAM FILES (X86)\WINDOWS KITS\10\INCLUDE\10.0.10240.0\UCRT\STRING.H
C:\PROGRAM FILES (X86)\WINDOWS KITS\10\INCLUDE\10.0.10240.0\UCRT\CORECRT_MEMORY.H
C:\PROGRAM FILES (X86)\WINDOWS KITS\10\INCLUDE\10.0.10240.0\UCRT\CORECRT_MEMCPY_S.H
C:\PROGRAM FILES (X86)\WINDOWS KITS\10\INCLUDE\10.0.10240.0\UCRT\ERRNO.H
D:\VS\VC\INCLUDE\VCRUNTIME_STRING.H
C:\PROGRAM FILES (X86)\WINDOWS KITS\10\INCLUDE\10.0.10240.0\UCRT\CORECRT_WSTRING.H
G:\CODE\QT\UI1\UI1\RSECC.H
^G:\CODE\QT\UI1\UI1\SPLIT.C
C:\PROGRAM FILES (X86)\WINDOWS KITS\10\INCLUDE\10.0.10240.0\UCRT\STDLIB.H
C:\PROGRAM FILES (X86)\WINDOWS KITS\10\INCLUDE\10.0.10240.0\UCRT\CORECRT.H
D:\VS\VC\INCLUDE\VCRUNTIME.H
D:\VS\VC\INCLUDE\SAL.H
D:\VS\VC\INCLUDE\CONCURRENCYSAL.H
D:\VS\VC\INCLUDE\VADEFS.H
C:\PROGRAM FILES (X86)\WINDOWS KITS\10\INCLUDE\10.0.10240.0\UCRT\CORECRT_MALLOC.H
C:\PROGRAM FILES (X86)\WINDOWS KITS\10\INCLUDE\10.0.10240.0\UCRT\CORECRT_SEARCH.H
C:\PROGRAM FILES (X86)\WINDOWS KITS\10\INCLUDE\10.0.10240.0\UCRT\STDDEF.H
C:\PROGRAM FILES (X86)\WINDOWS KITS\10\INCLUDE\10.0.10240.0\UCRT\CORECRT_WSTDLIB.H
D:\VS\VC\INCLUDE\LIMITS.H
C:\PROGRAM FILES (X86)\WINDOWS KITS\10\INCLUDE\10.0.10240.0\UCRT\STRING.H
C:\PROGRAM FILES (X86)\WINDOWS KITS\10\INCLUDE\10.0.10240.0\UCRT\CORECRT_MEMORY.H
C:\PROGRAM FILES (X86)\WINDOWS KITS\10\INCLUDE\10.0.10240.0\UCRT\CORECRT_MEMCPY_S.H
C:\PROGRAM FILES (X86)\WINDOWS KITS\10\INCLUDE\10.0.10240.0\UCRT\ERRNO.H
D:\VS\VC\INCLUDE\VCRUNTIME_STRING.H
C:\PROGRAM FILES (X86)\WINDOWS KITS\10\INCLUDE\10.0.10240.0\UCRT\CORECRT_WSTRING.H
G:\CODE\QT\UI1\UI1\QRENCODE.H
G:\CODE\QT\UI1\UI1\QRINPUT.H
G:\CODE\QT\UI1\UI1\BITSTREAM.H
G:\CODE\QT\UI1\UI1\QRSPEC.H
G:\CODE\QT\UI1\UI1\SPLIT.H
^G:\CODE\QT\UI1\UI1\GENERATEDFILES\QRC_UI1.CPP
C:\WINDOWS\GLOBALIZATION\SORTING\SORTDEFAULT.NLS
D:\VS\VC\BIN\X86_AMD64\2052\CLUI.DLL
C:\WINDOWS\SYSTEM32\TZRES.DLL
^G:\CODE\QT\UI1\UI1\GENERATEDFILES\RELEASE\MOC_UI1.CPP
G:\CODE\QT\UI1\UI1\UI1.H
D:\QT\5.6\MSVC2015_64\INCLUDE\QTWIDGETS\QMAINWINDOW
D:\QT\5.6\MSVC2015_64\INCLUDE\QTWIDGETS\QMAINWINDOW.H
D:\QT\5.6\MSVC2015_64\INCLUDE\QTWIDGETS\QWIDGET.H
D:\QT\5.6\MSVC2015_64\INCLUDE\QTGUI\QWINDOWDEFS.H
D:\QT\5.6\MSVC2015_64\INCLUDE\QTCORE\QGLOBAL.H
D:\VS\VC\INCLUDE\CSTDDEF
D:\VS\VC\INCLUDE\YVALS.H
D:\VS\VC\INCLUDE\XKEYCHECK.H
D:\VS\VC\INCLUDE\CRTDEFS.H
D:\VS\VC\INCLUDE\VCRUNTIME.H
D:\VS\VC\INCLUDE\SAL.H
D:\VS\VC\INCLUDE\CONCURRENCYSAL.H
D:\VS\VC\INCLUDE\VADEFS.H
C:\PROGRAM FILES (X86)\WINDOWS KITS\10\INCLUDE\10.0.10240.0\UCRT\CORECRT.H
D:\VS\VC\INCLUDE\USE_ANSI.H
C:\PROGRAM FILES (X86)\WINDOWS KITS\10\INCLUDE\10.0.10240.0\UCRT\STDDEF.H
D:\QT\5.6\MSVC2015_64\INCLUDE\QTCORE\QCONFIG.H
D:\QT\5.6\MSVC2015_64\INCLUDE\QTCORE\QFEATURES.H
D:\QT\5.6\MSVC2015_64\INCLUDE\QTCORE\QSYSTEMDETECTION.H
D:\QT\5.6\MSVC2015_64\INCLUDE\QTCORE\QPROCESSORDETECTION.H
D:\QT\5.6\MSVC2015_64\INCLUDE\QTCORE\QCOMPILERDETECTION.H
D:\VS\VC\INCLUDE\UTILITY
D:\VS\VC\INCLUDE\XSTDDEF
D:\VS\VC\INCLUDE\CSTDLIB
C:\PROGRAM FILES (X86)\WINDOWS KITS\10\INCLUDE\10.0.10240.0\UCRT\STDLIB.H
C:\PROGRAM FILES (X86)\WINDOWS KITS\10\INCLUDE\10.0.10240.0\UCRT\CORECRT_MALLOC.H
C:\PROGRAM FILES (X86)\WINDOWS KITS\10\INCLUDE\10.0.10240.0\UCRT\CORECRT_SEARCH.H
C:\PROGRAM FILES (X86)\WINDOWS KITS\10\INCLUDE\10.0.10240.0\UCRT\CORECRT_WSTDLIB.H
D:\VS\VC\INCLUDE\LIMITS.H
D:\VS\VC\INCLUDE\INITIALIZER_LIST
D:\VS\VC\INCLUDE\XTR1COMMON
D:\VS\VC\INCLUDE\IOSFWD
D:\VS\VC\INCLUDE\CSTDIO
C:\PROGRAM FILES (X86)\WINDOWS KITS\10\INCLUDE\10.0.10240.0\UCRT\STDIO.H
C:\PROGRAM FILES (X86)\WINDOWS KITS\10\INCLUDE\10.0.10240.0\UCRT\CORECRT_WSTDIO.H
C:\PROGRAM FILES (X86)\WINDOWS KITS\10\INCLUDE\10.0.10240.0\UCRT\CORECRT_STDIO_CONFIG.H
D:\VS\VC\INCLUDE\CSTRING
C:\PROGRAM FILES (X86)\WINDOWS KITS\10\INCLUDE\10.0.10240.0\UCRT\STRING.H
C:\PROGRAM FILES (X86)\WINDOWS KITS\10\INCLUDE\10.0.10240.0\UCRT\CORECRT_MEMORY.H
C:\PROGRAM FILES (X86)\WINDOWS KITS\10\INCLUDE\10.0.10240.0\UCRT\CORECRT_MEMCPY_S.H
C:\PROGRAM FILES (X86)\WINDOWS KITS\10\INCLUDE\10.0.10240.0\UCRT\ERRNO.H
D:\VS\VC\INCLUDE\VCRUNTIME_STRING.H
C:\PROGRAM FILES (X86)\WINDOWS KITS\10\INCLUDE\10.0.10240.0\UCRT\CORECRT_WSTRING.H
D:\VS\VC\INCLUDE\CWCHAR
C:\PROGRAM FILES (X86)\WINDOWS KITS\10\INCLUDE\10.0.10240.0\UCRT\WCHAR.H
C:\PROGRAM FILES (X86)\WINDOWS KITS\10\INCLUDE\10.0.10240.0\UCRT\CORECRT_WCONIO.H
C:\PROGRAM FILES (X86)\WINDOWS KITS\10\INCLUDE\10.0.10240.0\UCRT\CORECRT_WCTYPE.H
C:\PROGRAM FILES (X86)\WINDOWS KITS\10\INCLUDE\10.0.10240.0\UCRT\CORECRT_WDIRECT.H
C:\PROGRAM FILES (X86)\WINDOWS KITS\10\INCLUDE\10.0.10240.0\UCRT\CORECRT_WIO.H
C:\PROGRAM FILES (X86)\WINDOWS KITS\10\INCLUDE\10.0.10240.0\UCRT\CORECRT_SHARE.H
C:\PROGRAM FILES (X86)\WINDOWS KITS\10\INCLUDE\10.0.10240.0\UCRT\CORECRT_WPROCESS.H
C:\PROGRAM FILES (X86)\WINDOWS KITS\10\INCLUDE\10.0.10240.0\UCRT\CORECRT_WTIME.H
C:\PROGRAM FILES (X86)\WINDOWS KITS\10\INCLUDE\10.0.10240.0\UCRT\SYS\STAT.H
C:\PROGRAM FILES (X86)\WINDOWS KITS\10\INCLUDE\10.0.10240.0\UCRT\SYS\TYPES.H
C:\PROGRAM FILES (X86)\WINDOWS KITS\10\INCLUDE\10.0.10240.0\UCRT\CRTDBG.H
D:\VS\VC\INCLUDE\VCRUNTIME_NEW_DEBUG.H
D:\VS\VC\INCLUDE\VCRUNTIME_NEW.H
D:\VS\VC\INCLUDE\TYPE_TRAITS
D:\VS\VC\INCLUDE\ALGORITHM
D:\VS\VC\INCLUDE\XMEMORY
D:\VS\VC\INCLUDE\XMEMORY0
D:\VS\VC\INCLUDE\CSTDINT
D:\VS\VC\INCLUDE\STDINT.H
D:\VS\VC\INCLUDE\LIMITS
D:\VS\VC\INCLUDE\YMATH.H
D:\VS\VC\INCLUDE\CFLOAT
C:\PROGRAM FILES (X86)\WINDOWS KITS\10\INCLUDE\10.0.10240.0\UCRT\FLOAT.H
D:\VS\VC\INCLUDE\CLIMITS
D:\VS\VC\INCLUDE\CMATH
C:\PROGRAM FILES (X86)\WINDOWS KITS\10\INCLUDE\10.0.10240.0\UCRT\MATH.H
D:\VS\VC\INCLUDE\XTGMATH.H
D:\VS\VC\INCLUDE\NEW
D:\VS\VC\INCLUDE\EXCEPTION
C:\PROGRAM FILES (X86)\WINDOWS KITS\10\INCLUDE\10.0.10240.0\UCRT\MALLOC.H
D:\VS\VC\INCLUDE\VCRUNTIME_EXCEPTION.H
D:\VS\VC\INCLUDE\EH.H
C:\PROGRAM FILES (X86)\WINDOWS KITS\10\INCLUDE\10.0.10240.0\UCRT\CORECRT_TERMINATE.H
D:\VS\VC\INCLUDE\XUTILITY
D:\VS\VC\INCLUDE\XATOMIC0.H
D:\VS\VC\INCLUDE\INTRIN.H
D:\VS\VC\INCLUDE\SETJMP.H
D:\VS\VC\INCLUDE\IMMINTRIN.H
D:\VS\VC\INCLUDE\WMMINTRIN.H
D:\VS\VC\INCLUDE\NMMINTRIN.H
D:\VS\VC\INCLUDE\SMMINTRIN.H
D:\VS\VC\INCLUDE\TMMINTRIN.H
D:\VS\VC\INCLUDE\PMMINTRIN.H
D:\VS\VC\INCLUDE\EMMINTRIN.H
D:\VS\VC\INCLUDE\XMMINTRIN.H
D:\VS\VC\INCLUDE\MMINTRIN.H
D:\VS\VC\INCLUDE\AMMINTRIN.H
D:\QT\5.6\MSVC2015_64\INCLUDE\QTCORE\QTYPEINFO.H
D:\QT\5.6\MSVC2015_64\INCLUDE\QTCORE\QTYPETRAITS.H
D:\QT\5.6\MSVC2015_64\INCLUDE\QTCORE\QISENUM.H
D:\QT\5.6\MSVC2015_64\INCLUDE\QTCORE\QSYSINFO.H
D:\QT\5.6\MSVC2015_64\INCLUDE\QTCORE\QLOGGING.H
D:\QT\5.6\MSVC2015_64\INCLUDE\QTCORE\QFLAGS.H
D:\QT\5.6\MSVC2015_64\INCLUDE\QTCORE\QATOMIC.H
D:\QT\5.6\MSVC2015_64\INCLUDE\QTCORE\QBASICATOMIC.H
D:\QT\5.6\MSVC2015_64\INCLUDE\QTCORE\QATOMIC_MSVC.H
D:\QT\5.6\MSVC2015_64\INCLUDE\QTCORE\QGENERICATOMIC.H
D:\QT\5.6\MSVC2015_64\INCLUDE\QTCORE\QGLOBALSTATIC.H
D:\QT\5.6\MSVC2015_64\INCLUDE\QTCORE\QNUMERIC.H
D:\QT\5.6\MSVC2015_64\INCLUDE\QTCORE\QVERSIONTAGGING.H
D:\QT\5.6\MSVC2015_64\INCLUDE\QTCORE\QOBJECTDEFS.H
D:\QT\5.6\MSVC2015_64\INCLUDE\QTCORE\QNAMESPACE.H
D:\QT\5.6\MSVC2015_64\INCLUDE\QTCORE\QOBJECTDEFS_IMPL.H
D:\QT\5.6\MSVC2015_64\INCLUDE\QTGUI\QWINDOWDEFS_WIN.H
D:\QT\5.6\MSVC2015_64\INCLUDE\QTCORE\QOBJECT.H
D:\QT\5.6\MSVC2015_64\INCLUDE\QTCORE\QSTRING.H
D:\QT\5.6\MSVC2015_64\INCLUDE\QTCORE\QCHAR.H
D:\QT\5.6\MSVC2015_64\INCLUDE\QTCORE\QBYTEARRAY.H
D:\QT\5.6\MSVC2015_64\INCLUDE\QTCORE\QREFCOUNT.H
D:\QT\5.6\MSVC2015_64\INCLUDE\QTCORE\QARRAYDATA.H
D:\VS\VC\INCLUDE\STDARG.H
D:\VS\VC\INCLUDE\STRING
D:\VS\VC\INCLUDE\ISTREAM
D:\VS\VC\INCLUDE\OSTREAM
D:\VS\VC\INCLUDE\IOS
D:\VS\VC\INCLUDE\XLOCNUM
D:\VS\VC\INCLUDE\STREAMBUF
D:\VS\VC\INCLUDE\XIOSBASE
D:\VS\VC\INCLUDE\XLOCALE
D:\VS\VC\INCLUDE\STDEXCEPT
D:\VS\VC\INCLUDE\XSTRING
D:\VS\VC\INCLUDE\TYPEINFO
D:\VS\VC\INCLUDE\VCRUNTIME_TYPEINFO.H
D:\VS\VC\INCLUDE\XLOCINFO
D:\VS\VC\INCLUDE\XLOCINFO.H
C:\PROGRAM FILES (X86)\WINDOWS KITS\10\INCLUDE\10.0.10240.0\UCRT\CTYPE.H
C:\PROGRAM FILES (X86)\WINDOWS KITS\10\INCLUDE\10.0.10240.0\UCRT\LOCALE.H
D:\VS\VC\INCLUDE\XFACET
D:\VS\VC\INCLUDE\SYSTEM_ERROR
D:\VS\VC\INCLUDE\CERRNO
C:\PROGRAM FILES (X86)\WINDOWS KITS\10\INCLUDE\10.0.10240.0\UCRT\SHARE.H
D:\VS\VC\INCLUDE\ITERATOR
D:\QT\5.6\MSVC2015_64\INCLUDE\QTCORE\QLIST.H
D:\QT\5.6\MSVC2015_64\INCLUDE\QTCORE\QALGORITHMS.H
D:\QT\5.6\MSVC2015_64\INCLUDE\QTCORE\QITERATOR.H
D:\QT\5.6\MSVC2015_64\INCLUDE\QTCORE\QHASHFUNCTIONS.H
D:\QT\5.6\MSVC2015_64\INCLUDE\QTCORE\QPAIR.H
D:\VS\VC\INCLUDE\NUMERIC
D:\VS\VC\INCLUDE\LIST
D:\QT\5.6\MSVC2015_64\INCLUDE\QTCORE\QBYTEARRAYLIST.H
D:\QT\5.6\MSVC2015_64\INCLUDE\QTCORE\QSTRINGLIST.H
D:\QT\5.6\MSVC2015_64\INCLUDE\QTCORE\QREGEXP.H
D:\QT\5.6\MSVC2015_64\INCLUDE\QTCORE\QSTRINGMATCHER.H
D:\QT\5.6\MSVC2015_64\INCLUDE\QTCORE\QSCOPEDPOINTER.H
D:\QT\5.6\MSVC2015_64\INCLUDE\QTCORE\QMETATYPE.H
D:\QT\5.6\MSVC2015_64\INCLUDE\QTCORE\QVARLENGTHARRAY.H
D:\QT\5.6\MSVC2015_64\INCLUDE\QTCORE\QCONTAINERFWD.H
D:\VS\VC\INCLUDE\VECTOR
D:\VS\VC\INCLUDE\MAP
D:\VS\VC\INCLUDE\TUPLE
D:\VS\VC\INCLUDE\XTREE
D:\QT\5.6\MSVC2015_64\INCLUDE\QTCORE\QOBJECT_IMPL.H
D:\QT\5.6\MSVC2015_64\INCLUDE\QTCORE\QMARGINS.H
D:\QT\5.6\MSVC2015_64\INCLUDE\QTGUI\QPAINTDEVICE.H
D:\QT\5.6\MSVC2015_64\INCLUDE\QTCORE\QRECT.H
D:\QT\5.6\MSVC2015_64\INCLUDE\QTCORE\QSIZE.H
D:\QT\5.6\MSVC2015_64\INCLUDE\QTCORE\QPOINT.H
D:\QT\5.6\MSVC2015_64\INCLUDE\QTGUI\QPALETTE.H
D:\QT\5.6\MSVC2015_64\INCLUDE\QTGUI\QCOLOR.H
D:\QT\5.6\MSVC2015_64\INCLUDE\QTGUI\QRGB.H
D:\QT\5.6\MSVC2015_64\INCLUDE\QTGUI\QRGBA64.H
D:\QT\5.6\MSVC2015_64\INCLUDE\QTGUI\QBRUSH.H
D:\QT\5.6\MSVC2015_64\INCLUDE\QTCORE\QVECTOR.H
D:\QT\5.6\MSVC2015_64\INCLUDE\QTGUI\QMATRIX.H
D:\QT\5.6\MSVC2015_64\INCLUDE\QTGUI\QPOLYGON.H
D:\QT\5.6\MSVC2015_64\INCLUDE\QTGUI\QREGION.H
D:\QT\5.6\MSVC2015_64\INCLUDE\QTCORE\QDATASTREAM.H
D:\QT\5.6\MSVC2015_64\INCLUDE\QTCORE\QIODEVICE.H
D:\QT\5.6\MSVC2015_64\INCLUDE\QTCORE\QLINE.H
D:\QT\5.6\MSVC2015_64\INCLUDE\QTGUI\QTRANSFORM.H
D:\QT\5.6\MSVC2015_64\INCLUDE\QTGUI\QPAINTERPATH.H
D:\QT\5.6\MSVC2015_64\INCLUDE\QTGUI\QIMAGE.H
D:\QT\5.6\MSVC2015_64\INCLUDE\QTGUI\QPIXELFORMAT.H
D:\QT\5.6\MSVC2015_64\INCLUDE\QTGUI\QPIXMAP.H
D:\QT\5.6\MSVC2015_64\INCLUDE\QTCORE\QSHAREDPOINTER.H
D:\QT\5.6\MSVC2015_64\INCLUDE\QTCORE\QSHAREDDATA.H
D:\QT\5.6\MSVC2015_64\INCLUDE\QTCORE\QHASH.H
D:\QT\5.6\MSVC2015_64\INCLUDE\QTCORE\QSHAREDPOINTER_IMPL.H
D:\QT\5.6\MSVC2015_64\INCLUDE\QTGUI\QFONT.H
D:\QT\5.6\MSVC2015_64\INCLUDE\QTGUI\QFONTMETRICS.H
D:\QT\5.6\MSVC2015_64\INCLUDE\QTGUI\QFONTINFO.H
D:\QT\5.6\MSVC2015_64\INCLUDE\QTWIDGETS\QSIZEPOLICY.H
D:\QT\5.6\MSVC2015_64\INCLUDE\QTGUI\QCURSOR.H
D:\QT\5.6\MSVC2015_64\INCLUDE\QTGUI\QKEYSEQUENCE.H
D:\QT\5.6\MSVC2015_64\INCLUDE\QTWIDGETS\QTABWIDGET.H
D:\QT\5.6\MSVC2015_64\INCLUDE\QTGUI\QICON.H
G:\CODE\QT\UI1\UI1\GENERATEDFILES\UI_UI1.H
D:\QT\5.6\MSVC2015_64\INCLUDE\QTCORE\QVARIANT
D:\QT\5.6\MSVC2015_64\INCLUDE\QTCORE\QVARIANT.H
D:\QT\5.6\MSVC2015_64\INCLUDE\QTCORE\QMAP.H
D:\QT\5.6\MSVC2015_64\INCLUDE\QTWIDGETS\QACTION
D:\QT\5.6\MSVC2015_64\INCLUDE\QTWIDGETS\QACTION.H
D:\QT\5.6\MSVC2015_64\INCLUDE\QTWIDGETS\QACTIONGROUP.H
D:\QT\5.6\MSVC2015_64\INCLUDE\QTWIDGETS\QAPPLICATION
D:\QT\5.6\MSVC2015_64\INCLUDE\QTWIDGETS\QAPPLICATION.H
D:\QT\5.6\MSVC2015_64\INCLUDE\QTCORE\QCOREAPPLICATION.H
D:\QT\5.6\MSVC2015_64\INCLUDE\QTCORE\QCOREEVENT.H
D:\QT\5.6\MSVC2015_64\INCLUDE\QTCORE\QEVENTLOOP.H
D:\QT\5.6\MSVC2015_64\INCLUDE\QTGUI\QGUIAPPLICATION.H
D:\QT\5.6\MSVC2015_64\INCLUDE\QTGUI\QINPUTMETHOD.H
D:\QT\5.6\MSVC2015_64\INCLUDE\QTCORE\QLOCALE.H
D:\QT\5.6\MSVC2015_64\INCLUDE\QTWIDGETS\QBUTTONGROUP
D:\QT\5.6\MSVC2015_64\INCLUDE\QTWIDGETS\QBUTTONGROUP.H
D:\QT\5.6\MSVC2015_64\INCLUDE\QTWIDGETS\QHEADERVIEW
D:\QT\5.6\MSVC2015_64\INCLUDE\QTWIDGETS\QHEADERVIEW.H
D:\QT\5.6\MSVC2015_64\INCLUDE\QTWIDGETS\QABSTRACTITEMVIEW.H
D:\QT\5.6\MSVC2015_64\INCLUDE\QTWIDGETS\QABSTRACTSCROLLAREA.H
D:\QT\5.6\MSVC2015_64\INCLUDE\QTWIDGETS\QFRAME.H
D:\QT\5.6\MSVC2015_64\INCLUDE\QTCORE\QABSTRACTITEMMODEL.H
D:\QT\5.6\MSVC2015_64\INCLUDE\QTCORE\QITEMSELECTIONMODEL.H
D:\QT\5.6\MSVC2015_64\INCLUDE\QTCORE\QSET.H
D:\QT\5.6\MSVC2015_64\INCLUDE\QTWIDGETS\QABSTRACTITEMDELEGATE.H
D:\QT\5.6\MSVC2015_64\INCLUDE\QTWIDGETS\QSTYLEOPTION.H
D:\QT\5.6\MSVC2015_64\INCLUDE\QTWIDGETS\QABSTRACTSPINBOX.H
D:\QT\5.6\MSVC2015_64\INCLUDE\QTGUI\QVALIDATOR.H
D:\QT\5.6\MSVC2015_64\INCLUDE\QTCORE\QREGULAREXPRESSION.H
D:\QT\5.6\MSVC2015_64\INCLUDE\QTWIDGETS\QSLIDER.H
D:\QT\5.6\MSVC2015_64\INCLUDE\QTWIDGETS\QABSTRACTSLIDER.H
D:\QT\5.6\MSVC2015_64\INCLUDE\QTWIDGETS\QSTYLE.H
D:\QT\5.6\MSVC2015_64\INCLUDE\QTWIDGETS\QTABBAR.H
D:\QT\5.6\MSVC2015_64\INCLUDE\QTWIDGETS\QRUBBERBAND.H
D:\QT\5.6\MSVC2015_64\INCLUDE\QTWIDGETS\QLABEL
D:\QT\5.6\MSVC2015_64\INCLUDE\QTWIDGETS\QLABEL.H
D:\QT\5.6\MSVC2015_64\INCLUDE\QTWIDGETS\QMENUBAR
D:\QT\5.6\MSVC2015_64\INCLUDE\QTWIDGETS\QMENUBAR.H
D:\QT\5.6\MSVC2015_64\INCLUDE\QTWIDGETS\QMENU.H
D:\QT\5.6\MSVC2015_64\INCLUDE\QTWIDGETS\QPUSHBUTTON
D:\QT\5.6\MSVC2015_64\INCLUDE\QTWIDGETS\QPUSHBUTTON.H
D:\QT\5.6\MSVC2015_64\INCLUDE\QTWIDGETS\QABSTRACTBUTTON.H
D:\QT\5.6\MSVC2015_64\INCLUDE\QTWIDGETS\QSTATUSBAR
D:\QT\5.6\MSVC2015_64\INCLUDE\QTWIDGETS\QSTATUSBAR.H
D:\QT\5.6\MSVC2015_64\INCLUDE\QTWIDGETS\QTEXTEDIT
D:\QT\5.6\MSVC2015_64\INCLUDE\QTWIDGETS\QTEXTEDIT.H
D:\QT\5.6\MSVC2015_64\INCLUDE\QTGUI\QTEXTDOCUMENT.H
D:\QT\5.6\MSVC2015_64\INCLUDE\QTCORE\QURL.H
D:\QT\5.6\MSVC2015_64\INCLUDE\QTGUI\QTEXTOPTION.H
D:\QT\5.6\MSVC2015_64\INCLUDE\QTGUI\QTEXTCURSOR.H
D:\QT\5.6\MSVC2015_64\INCLUDE\QTGUI\QTEXTFORMAT.H
D:\QT\5.6\MSVC2015_64\INCLUDE\QTGUI\QPEN.H
D:\QT\5.6\MSVC2015_64\INCLUDE\QTWIDGETS\QTOOLBAR
D:\QT\5.6\MSVC2015_64\INCLUDE\QTWIDGETS\QTOOLBAR.H
D:\QT\5.6\MSVC2015_64\INCLUDE\QTWIDGETS\QWIDGET
G:\CODE\QT\UI1\UI1\QRENCODE.H
D:\VS\VC\INCLUDE\IOSTREAM
D:\OPENCV\OPENCV\BUILD\INCLUDE\OPENCV\CV.H
D:\OPENCV\OPENCV\BUILD\INCLUDE\OPENCV2\CORE\CORE_C.H
D:\OPENCV\OPENCV\BUILD\INCLUDE\OPENCV2\CORE\TYPES_C.H
D:\OPENCV\OPENCV\BUILD\INCLUDE\OPENCV2\CORE\CVDEF.H
D:\OPENCV\OPENCV\BUILD\INCLUDE\OPENCV2\CORE\HAL\INTERFACE.H
C:\PROGRAM FILES (X86)\WINDOWS KITS\10\INCLUDE\10.0.10240.0\UCRT\ASSERT.H
D:\OPENCV\OPENCV\BUILD\INCLUDE\OPENCV2\CORE.HPP
D:\OPENCV\OPENCV\BUILD\INCLUDE\OPENCV2\CORE\VERSION.HPP
D:\OPENCV\OPENCV\BUILD\INCLUDE\OPENCV2\CORE\BASE.HPP
D:\OPENCV\OPENCV\BUILD\INCLUDE\OPENCV2\CORE\CVSTD.HPP
D:\VS\VC\INCLUDE\CCTYPE
D:\OPENCV\OPENCV\BUILD\INCLUDE\OPENCV2\CORE\PTR.INL.HPP
D:\OPENCV\OPENCV\BUILD\INCLUDE\OPENCV2\CORE\NEON_UTILS.HPP
D:\OPENCV\OPENCV\BUILD\INCLUDE\OPENCV2\CORE\TRAITS.HPP
D:\OPENCV\OPENCV\BUILD\INCLUDE\OPENCV2\CORE\MATX.HPP
D:\OPENCV\OPENCV\BUILD\INCLUDE\OPENCV2\CORE\SATURATE.HPP
D:\OPENCV\OPENCV\BUILD\INCLUDE\OPENCV2\CORE\FAST_MATH.HPP
D:\OPENCV\OPENCV\BUILD\INCLUDE\OPENCV2\CORE\TYPES.HPP
D:\OPENCV\OPENCV\BUILD\INCLUDE\OPENCV2\CORE\MAT.HPP
D:\OPENCV\OPENCV\BUILD\INCLUDE\OPENCV2\CORE\BUFFERPOOL.HPP
D:\OPENCV\OPENCV\BUILD\INCLUDE\OPENCV2\CORE\MAT.INL.HPP
D:\OPENCV\OPENCV\BUILD\INCLUDE\OPENCV2\CORE\PERSISTENCE.HPP
D:\OPENCV\OPENCV\BUILD\INCLUDE\OPENCV2\CORE\OPERATIONS.HPP
D:\OPENCV\OPENCV\BUILD\INCLUDE\OPENCV2\CORE\CVSTD.INL.HPP
D:\VS\VC\INCLUDE\COMPLEX
D:\VS\VC\INCLUDE\CCOMPLEX
D:\VS\VC\INCLUDE\SSTREAM
D:\VS\VC\INCLUDE\XCOMPLEX
D:\OPENCV\OPENCV\BUILD\INCLUDE\OPENCV2\CORE\UTILITY.HPP
D:\OPENCV\OPENCV\BUILD\INCLUDE\OPENCV2\CORE\OPTIM.HPP
D:\OPENCV\OPENCV\BUILD\INCLUDE\OPENCV2\IMGPROC\IMGPROC_C.H
D:\OPENCV\OPENCV\BUILD\INCLUDE\OPENCV2\IMGPROC\TYPES_C.H
D:\OPENCV\OPENCV\BUILD\INCLUDE\OPENCV2\PHOTO\PHOTO_C.H
D:\OPENCV\OPENCV\BUILD\INCLUDE\OPENCV2\VIDEO\TRACKING_C.H
D:\OPENCV\OPENCV\BUILD\INCLUDE\OPENCV2\OBJDETECT\OBJDETECT_C.H
D:\VS\VC\INCLUDE\DEQUE
D:\OPENCV\OPENCV\BUILD\INCLUDE\OPENCV2\HIGHGUI\HIGHGUI.HPP
D:\OPENCV\OPENCV\BUILD\INCLUDE\OPENCV2\HIGHGUI.HPP
D:\OPENCV\OPENCV\BUILD\INCLUDE\OPENCV2\IMGCODECS.HPP
D:\OPENCV\OPENCV\BUILD\INCLUDE\OPENCV2\VIDEOIO.HPP
D:\OPENCV\OPENCV\BUILD\INCLUDE\OPENCV2\HIGHGUI\HIGHGUI_C.H
D:\OPENCV\OPENCV\BUILD\INCLUDE\OPENCV2\IMGCODECS\IMGCODECS_C.H
D:\OPENCV\OPENCV\BUILD\INCLUDE\OPENCV2\VIDEOIO\VIDEOIO_C.H
D:\OPENCV\OPENCV\BUILD\INCLUDE\OPENCV2\OPENCV.HPP
D:\OPENCV\OPENCV\BUILD\INCLUDE\OPENCV2\IMGPROC.HPP
D:\OPENCV\OPENCV\BUILD\INCLUDE\OPENCV2\PHOTO.HPP
D:\OPENCV\OPENCV\BUILD\INCLUDE\OPENCV2\VIDEO.HPP
D:\OPENCV\OPENCV\BUILD\INCLUDE\OPENCV2\VIDEO\TRACKING.HPP
D:\OPENCV\OPENCV\BUILD\INCLUDE\OPENCV2\VIDEO\BACKGROUND_SEGM.HPP
D:\OPENCV\OPENCV\BUILD\INCLUDE\OPENCV2\FEATURES2D.HPP
D:\OPENCV\OPENCV\BUILD\INCLUDE\OPENCV2\FLANN\MINIFLANN.HPP
D:\OPENCV\OPENCV\BUILD\INCLUDE\OPENCV2\FLANN\DEFINES.H
D:\OPENCV\OPENCV\BUILD\INCLUDE\OPENCV2\FLANN\CONFIG.H
D:\OPENCV\OPENCV\BUILD\INCLUDE\OPENCV2\OBJDETECT.HPP
D:\OPENCV\OPENCV\BUILD\INCLUDE\OPENCV2\OBJDETECT\DETECTION_BASED_TRACKER.HPP
D:\OPENCV\OPENCV\BUILD\INCLUDE\OPENCV2\CALIB3D.HPP
D:\OPENCV\OPENCV\BUILD\INCLUDE\OPENCV2\CORE\AFFINE.HPP
D:\OPENCV\OPENCV\BUILD\INCLUDE\OPENCV2\CALIB3D\CALIB3D_C.H
D:\OPENCV\OPENCV\BUILD\INCLUDE\OPENCV2\ML.HPP
^G:\CODE\QT\UI1\UI1\MAIN.CPP
G:\CODE\QT\UI1\UI1\UI1.H
D:\QT\5.6\MSVC2015_64\INCLUDE\QTWIDGETS\QMAINWINDOW
D:\QT\5.6\MSVC2015_64\INCLUDE\QTWIDGETS\QMAINWINDOW.H
D:\QT\5.6\MSVC2015_64\INCLUDE\QTWIDGETS\QWIDGET.H
D:\QT\5.6\MSVC2015_64\INCLUDE\QTGUI\QWINDOWDEFS.H
D:\QT\5.6\MSVC2015_64\INCLUDE\QTCORE\QGLOBAL.H
D:\VS\VC\INCLUDE\CSTDDEF
D:\VS\VC\INCLUDE\YVALS.H
D:\VS\VC\INCLUDE\XKEYCHECK.H
D:\VS\VC\INCLUDE\CRTDEFS.H
D:\VS\VC\INCLUDE\VCRUNTIME.H
D:\VS\VC\INCLUDE\SAL.H
D:\VS\VC\INCLUDE\CONCURRENCYSAL.H
D:\VS\VC\INCLUDE\VADEFS.H
C:\PROGRAM FILES (X86)\WINDOWS KITS\10\INCLUDE\10.0.10240.0\UCRT\CORECRT.H
D:\VS\VC\INCLUDE\USE_ANSI.H
C:\PROGRAM FILES (X86)\WINDOWS KITS\10\INCLUDE\10.0.10240.0\UCRT\STDDEF.H
D:\QT\5.6\MSVC2015_64\INCLUDE\QTCORE\QCONFIG.H
D:\QT\5.6\MSVC2015_64\INCLUDE\QTCORE\QFEATURES.H
D:\QT\5.6\MSVC2015_64\INCLUDE\QTCORE\QSYSTEMDETECTION.H
D:\QT\5.6\MSVC2015_64\INCLUDE\QTCORE\QPROCESSORDETECTION.H
D:\QT\5.6\MSVC2015_64\INCLUDE\QTCORE\QCOMPILERDETECTION.H
D:\VS\VC\INCLUDE\UTILITY
D:\VS\VC\INCLUDE\XSTDDEF
D:\VS\VC\INCLUDE\CSTDLIB
C:\PROGRAM FILES (X86)\WINDOWS KITS\10\INCLUDE\10.0.10240.0\UCRT\STDLIB.H
C:\PROGRAM FILES (X86)\WINDOWS KITS\10\INCLUDE\10.0.10240.0\UCRT\CORECRT_MALLOC.H
C:\PROGRAM FILES (X86)\WINDOWS KITS\10\INCLUDE\10.0.10240.0\UCRT\CORECRT_SEARCH.H
C:\PROGRAM FILES (X86)\WINDOWS KITS\10\INCLUDE\10.0.10240.0\UCRT\CORECRT_WSTDLIB.H
D:\VS\VC\INCLUDE\LIMITS.H
D:\VS\VC\INCLUDE\INITIALIZER_LIST
D:\VS\VC\INCLUDE\XTR1COMMON
D:\VS\VC\INCLUDE\IOSFWD
D:\VS\VC\INCLUDE\CSTDIO
C:\PROGRAM FILES (X86)\WINDOWS KITS\10\INCLUDE\10.0.10240.0\UCRT\STDIO.H
C:\PROGRAM FILES (X86)\WINDOWS KITS\10\INCLUDE\10.0.10240.0\UCRT\CORECRT_WSTDIO.H
C:\PROGRAM FILES (X86)\WINDOWS KITS\10\INCLUDE\10.0.10240.0\UCRT\CORECRT_STDIO_CONFIG.H
D:\VS\VC\INCLUDE\CSTRING
C:\PROGRAM FILES (X86)\WINDOWS KITS\10\INCLUDE\10.0.10240.0\UCRT\STRING.H
C:\PROGRAM FILES (X86)\WINDOWS KITS\10\INCLUDE\10.0.10240.0\UCRT\CORECRT_MEMORY.H
C:\PROGRAM FILES (X86)\WINDOWS KITS\10\INCLUDE\10.0.10240.0\UCRT\CORECRT_MEMCPY_S.H
C:\PROGRAM FILES (X86)\WINDOWS KITS\10\INCLUDE\10.0.10240.0\UCRT\ERRNO.H
D:\VS\VC\INCLUDE\VCRUNTIME_STRING.H
C:\PROGRAM FILES (X86)\WINDOWS KITS\10\INCLUDE\10.0.10240.0\UCRT\CORECRT_WSTRING.H
D:\VS\VC\INCLUDE\CWCHAR
C:\PROGRAM FILES (X86)\WINDOWS KITS\10\INCLUDE\10.0.10240.0\UCRT\WCHAR.H
C:\PROGRAM FILES (X86)\WINDOWS KITS\10\INCLUDE\10.0.10240.0\UCRT\CORECRT_WCONIO.H
C:\PROGRAM FILES (X86)\WINDOWS KITS\10\INCLUDE\10.0.10240.0\UCRT\CORECRT_WCTYPE.H
C:\PROGRAM FILES (X86)\WINDOWS KITS\10\INCLUDE\10.0.10240.0\UCRT\CORECRT_WDIRECT.H
C:\PROGRAM FILES (X86)\WINDOWS KITS\10\INCLUDE\10.0.10240.0\UCRT\CORECRT_WIO.H
C:\PROGRAM FILES (X86)\WINDOWS KITS\10\INCLUDE\10.0.10240.0\UCRT\CORECRT_SHARE.H
C:\PROGRAM FILES (X86)\WINDOWS KITS\10\INCLUDE\10.0.10240.0\UCRT\CORECRT_WPROCESS.H
C:\PROGRAM FILES (X86)\WINDOWS KITS\10\INCLUDE\10.0.10240.0\UCRT\CORECRT_WTIME.H
C:\PROGRAM FILES (X86)\WINDOWS KITS\10\INCLUDE\10.0.10240.0\UCRT\SYS\STAT.H
C:\PROGRAM FILES (X86)\WINDOWS KITS\10\INCLUDE\10.0.10240.0\UCRT\SYS\TYPES.H
C:\PROGRAM FILES (X86)\WINDOWS KITS\10\INCLUDE\10.0.10240.0\UCRT\CRTDBG.H
D:\VS\VC\INCLUDE\VCRUNTIME_NEW_DEBUG.H
D:\VS\VC\INCLUDE\VCRUNTIME_NEW.H
D:\VS\VC\INCLUDE\TYPE_TRAITS
D:\VS\VC\INCLUDE\ALGORITHM
D:\VS\VC\INCLUDE\XMEMORY
D:\VS\VC\INCLUDE\XMEMORY0
D:\VS\VC\INCLUDE\CSTDINT
D:\VS\VC\INCLUDE\STDINT.H
D:\VS\VC\INCLUDE\LIMITS
D:\VS\VC\INCLUDE\YMATH.H
D:\VS\VC\INCLUDE\CFLOAT
C:\PROGRAM FILES (X86)\WINDOWS KITS\10\INCLUDE\10.0.10240.0\UCRT\FLOAT.H
D:\VS\VC\INCLUDE\CLIMITS
D:\VS\VC\INCLUDE\CMATH
C:\PROGRAM FILES (X86)\WINDOWS KITS\10\INCLUDE\10.0.10240.0\UCRT\MATH.H
D:\VS\VC\INCLUDE\XTGMATH.H
D:\VS\VC\INCLUDE\NEW
D:\VS\VC\INCLUDE\EXCEPTION
C:\PROGRAM FILES (X86)\WINDOWS KITS\10\INCLUDE\10.0.10240.0\UCRT\MALLOC.H
D:\VS\VC\INCLUDE\VCRUNTIME_EXCEPTION.H
D:\VS\VC\INCLUDE\EH.H
C:\PROGRAM FILES (X86)\WINDOWS KITS\10\INCLUDE\10.0.10240.0\UCRT\CORECRT_TERMINATE.H
D:\VS\VC\INCLUDE\XUTILITY
D:\VS\VC\INCLUDE\XATOMIC0.H
D:\VS\VC\INCLUDE\INTRIN.H
D:\VS\VC\INCLUDE\SETJMP.H
D:\VS\VC\INCLUDE\IMMINTRIN.H
D:\VS\VC\INCLUDE\WMMINTRIN.H
D:\VS\VC\INCLUDE\NMMINTRIN.H
D:\VS\VC\INCLUDE\SMMINTRIN.H
D:\VS\VC\INCLUDE\TMMINTRIN.H
D:\VS\VC\INCLUDE\PMMINTRIN.H
D:\VS\VC\INCLUDE\EMMINTRIN.H
D:\VS\VC\INCLUDE\XMMINTRIN.H
D:\VS\VC\INCLUDE\MMINTRIN.H
D:\VS\VC\INCLUDE\AMMINTRIN.H
D:\QT\5.6\MSVC2015_64\INCLUDE\QTCORE\QTYPEINFO.H
D:\QT\5.6\MSVC2015_64\INCLUDE\QTCORE\QTYPETRAITS.H
D:\QT\5.6\MSVC2015_64\INCLUDE\QTCORE\QISENUM.H
D:\QT\5.6\MSVC2015_64\INCLUDE\QTCORE\QSYSINFO.H
D:\QT\5.6\MSVC2015_64\INCLUDE\QTCORE\QLOGGING.H
D:\QT\5.6\MSVC2015_64\INCLUDE\QTCORE\QFLAGS.H
D:\QT\5.6\MSVC2015_64\INCLUDE\QTCORE\QATOMIC.H
D:\QT\5.6\MSVC2015_64\INCLUDE\QTCORE\QBASICATOMIC.H
D:\QT\5.6\MSVC2015_64\INCLUDE\QTCORE\QATOMIC_MSVC.H
D:\QT\5.6\MSVC2015_64\INCLUDE\QTCORE\QGENERICATOMIC.H
D:\QT\5.6\MSVC2015_64\INCLUDE\QTCORE\QGLOBALSTATIC.H
D:\QT\5.6\MSVC2015_64\INCLUDE\QTCORE\QNUMERIC.H
D:\QT\5.6\MSVC2015_64\INCLUDE\QTCORE\QVERSIONTAGGING.H
D:\QT\5.6\MSVC2015_64\INCLUDE\QTCORE\QOBJECTDEFS.H
D:\QT\5.6\MSVC2015_64\INCLUDE\QTCORE\QNAMESPACE.H
D:\QT\5.6\MSVC2015_64\INCLUDE\QTCORE\QOBJECTDEFS_IMPL.H
D:\QT\5.6\MSVC2015_64\INCLUDE\QTGUI\QWINDOWDEFS_WIN.H
D:\QT\5.6\MSVC2015_64\INCLUDE\QTCORE\QOBJECT.H
D:\QT\5.6\MSVC2015_64\INCLUDE\QTCORE\QSTRING.H
D:\QT\5.6\MSVC2015_64\INCLUDE\QTCORE\QCHAR.H
D:\QT\5.6\MSVC2015_64\INCLUDE\QTCORE\QBYTEARRAY.H
D:\QT\5.6\MSVC2015_64\INCLUDE\QTCORE\QREFCOUNT.H
D:\QT\5.6\MSVC2015_64\INCLUDE\QTCORE\QARRAYDATA.H
D:\VS\VC\INCLUDE\STDARG.H
D:\VS\VC\INCLUDE\STRING
D:\VS\VC\INCLUDE\ISTREAM
D:\VS\VC\INCLUDE\OSTREAM
D:\VS\VC\INCLUDE\IOS
D:\VS\VC\INCLUDE\XLOCNUM
D:\VS\VC\INCLUDE\STREAMBUF
D:\VS\VC\INCLUDE\XIOSBASE
D:\VS\VC\INCLUDE\XLOCALE
D:\VS\VC\INCLUDE\STDEXCEPT
D:\VS\VC\INCLUDE\XSTRING
D:\VS\VC\INCLUDE\TYPEINFO
D:\VS\VC\INCLUDE\VCRUNTIME_TYPEINFO.H
D:\VS\VC\INCLUDE\XLOCINFO
D:\VS\VC\INCLUDE\XLOCINFO.H
C:\PROGRAM FILES (X86)\WINDOWS KITS\10\INCLUDE\10.0.10240.0\UCRT\CTYPE.H
C:\PROGRAM FILES (X86)\WINDOWS KITS\10\INCLUDE\10.0.10240.0\UCRT\LOCALE.H
D:\VS\VC\INCLUDE\XFACET
D:\VS\VC\INCLUDE\SYSTEM_ERROR
D:\VS\VC\INCLUDE\CERRNO
C:\PROGRAM FILES (X86)\WINDOWS KITS\10\INCLUDE\10.0.10240.0\UCRT\SHARE.H
D:\VS\VC\INCLUDE\ITERATOR
D:\QT\5.6\MSVC2015_64\INCLUDE\QTCORE\QLIST.H
D:\QT\5.6\MSVC2015_64\INCLUDE\QTCORE\QALGORITHMS.H
D:\QT\5.6\MSVC2015_64\INCLUDE\QTCORE\QITERATOR.H
D:\QT\5.6\MSVC2015_64\INCLUDE\QTCORE\QHASHFUNCTIONS.H
D:\QT\5.6\MSVC2015_64\INCLUDE\QTCORE\QPAIR.H
D:\VS\VC\INCLUDE\NUMERIC
D:\VS\VC\INCLUDE\LIST
D:\QT\5.6\MSVC2015_64\INCLUDE\QTCORE\QBYTEARRAYLIST.H
D:\QT\5.6\MSVC2015_64\INCLUDE\QTCORE\QSTRINGLIST.H
D:\QT\5.6\MSVC2015_64\INCLUDE\QTCORE\QREGEXP.H
D:\QT\5.6\MSVC2015_64\INCLUDE\QTCORE\QSTRINGMATCHER.H
D:\QT\5.6\MSVC2015_64\INCLUDE\QTCORE\QSCOPEDPOINTER.H
D:\QT\5.6\MSVC2015_64\INCLUDE\QTCORE\QMETATYPE.H
D:\QT\5.6\MSVC2015_64\INCLUDE\QTCORE\QVARLENGTHARRAY.H
D:\QT\5.6\MSVC2015_64\INCLUDE\QTCORE\QCONTAINERFWD.H
D:\VS\VC\INCLUDE\VECTOR
D:\VS\VC\INCLUDE\MAP
D:\VS\VC\INCLUDE\TUPLE
D:\VS\VC\INCLUDE\XTREE
D:\QT\5.6\MSVC2015_64\INCLUDE\QTCORE\QOBJECT_IMPL.H
D:\QT\5.6\MSVC2015_64\INCLUDE\QTCORE\QMARGINS.H
D:\QT\5.6\MSVC2015_64\INCLUDE\QTGUI\QPAINTDEVICE.H
D:\QT\5.6\MSVC2015_64\INCLUDE\QTCORE\QRECT.H
D:\QT\5.6\MSVC2015_64\INCLUDE\QTCORE\QSIZE.H
D:\QT\5.6\MSVC2015_64\INCLUDE\QTCORE\QPOINT.H
D:\QT\5.6\MSVC2015_64\INCLUDE\QTGUI\QPALETTE.H
D:\QT\5.6\MSVC2015_64\INCLUDE\QTGUI\QCOLOR.H
D:\QT\5.6\MSVC2015_64\INCLUDE\QTGUI\QRGB.H
D:\QT\5.6\MSVC2015_64\INCLUDE\QTGUI\QRGBA64.H
D:\QT\5.6\MSVC2015_64\INCLUDE\QTGUI\QBRUSH.H
D:\QT\5.6\MSVC2015_64\INCLUDE\QTCORE\QVECTOR.H
D:\QT\5.6\MSVC2015_64\INCLUDE\QTGUI\QMATRIX.H
D:\QT\5.6\MSVC2015_64\INCLUDE\QTGUI\QPOLYGON.H
D:\QT\5.6\MSVC2015_64\INCLUDE\QTGUI\QREGION.H
D:\QT\5.6\MSVC2015_64\INCLUDE\QTCORE\QDATASTREAM.H
D:\QT\5.6\MSVC2015_64\INCLUDE\QTCORE\QIODEVICE.H
D:\QT\5.6\MSVC2015_64\INCLUDE\QTCORE\QLINE.H
D:\QT\5.6\MSVC2015_64\INCLUDE\QTGUI\QTRANSFORM.H
D:\QT\5.6\MSVC2015_64\INCLUDE\QTGUI\QPAINTERPATH.H
D:\QT\5.6\MSVC2015_64\INCLUDE\QTGUI\QIMAGE.H
D:\QT\5.6\MSVC2015_64\INCLUDE\QTGUI\QPIXELFORMAT.H
D:\QT\5.6\MSVC2015_64\INCLUDE\QTGUI\QPIXMAP.H
D:\QT\5.6\MSVC2015_64\INCLUDE\QTCORE\QSHAREDPOINTER.H
D:\QT\5.6\MSVC2015_64\INCLUDE\QTCORE\QSHAREDDATA.H
D:\QT\5.6\MSVC2015_64\INCLUDE\QTCORE\QHASH.H
D:\QT\5.6\MSVC2015_64\INCLUDE\QTCORE\QSHAREDPOINTER_IMPL.H
D:\QT\5.6\MSVC2015_64\INCLUDE\QTGUI\QFONT.H
D:\QT\5.6\MSVC2015_64\INCLUDE\QTGUI\QFONTMETRICS.H
D:\QT\5.6\MSVC2015_64\INCLUDE\QTGUI\QFONTINFO.H
D:\QT\5.6\MSVC2015_64\INCLUDE\QTWIDGETS\QSIZEPOLICY.H
D:\QT\5.6\MSVC2015_64\INCLUDE\QTGUI\QCURSOR.H
D:\QT\5.6\MSVC2015_64\INCLUDE\QTGUI\QKEYSEQUENCE.H
D:\QT\5.6\MSVC2015_64\INCLUDE\QTWIDGETS\QTABWIDGET.H
D:\QT\5.6\MSVC2015_64\INCLUDE\QTGUI\QICON.H
G:\CODE\QT\UI1\UI1\GENERATEDFILES\UI_UI1.H
D:\QT\5.6\MSVC2015_64\INCLUDE\QTCORE\QVARIANT
D:\QT\5.6\MSVC2015_64\INCLUDE\QTCORE\QVARIANT.H
D:\QT\5.6\MSVC2015_64\INCLUDE\QTCORE\QMAP.H
D:\QT\5.6\MSVC2015_64\INCLUDE\QTWIDGETS\QACTION
D:\QT\5.6\MSVC2015_64\INCLUDE\QTWIDGETS\QACTION.H
D:\QT\5.6\MSVC2015_64\INCLUDE\QTWIDGETS\QACTIONGROUP.H
D:\QT\5.6\MSVC2015_64\INCLUDE\QTWIDGETS\QAPPLICATION
D:\QT\5.6\MSVC2015_64\INCLUDE\QTWIDGETS\QAPPLICATION.H
D:\QT\5.6\MSVC2015_64\INCLUDE\QTCORE\QCOREAPPLICATION.H
D:\QT\5.6\MSVC2015_64\INCLUDE\QTCORE\QCOREEVENT.H
D:\QT\5.6\MSVC2015_64\INCLUDE\QTCORE\QEVENTLOOP.H
D:\QT\5.6\MSVC2015_64\INCLUDE\QTGUI\QGUIAPPLICATION.H
D:\QT\5.6\MSVC2015_64\INCLUDE\QTGUI\QINPUTMETHOD.H
D:\QT\5.6\MSVC2015_64\INCLUDE\QTCORE\QLOCALE.H
D:\QT\5.6\MSVC2015_64\INCLUDE\QTWIDGETS\QBUTTONGROUP
D:\QT\5.6\MSVC2015_64\INCLUDE\QTWIDGETS\QBUTTONGROUP.H
D:\QT\5.6\MSVC2015_64\INCLUDE\QTWIDGETS\QHEADERVIEW
D:\QT\5.6\MSVC2015_64\INCLUDE\QTWIDGETS\QHEADERVIEW.H
D:\QT\5.6\MSVC2015_64\INCLUDE\QTWIDGETS\QABSTRACTITEMVIEW.H
D:\QT\5.6\MSVC2015_64\INCLUDE\QTWIDGETS\QABSTRACTSCROLLAREA.H
D:\QT\5.6\MSVC2015_64\INCLUDE\QTWIDGETS\QFRAME.H
D:\QT\5.6\MSVC2015_64\INCLUDE\QTCORE\QABSTRACTITEMMODEL.H
D:\QT\5.6\MSVC2015_64\INCLUDE\QTCORE\QITEMSELECTIONMODEL.H
D:\QT\5.6\MSVC2015_64\INCLUDE\QTCORE\QSET.H
D:\QT\5.6\MSVC2015_64\INCLUDE\QTWIDGETS\QABSTRACTITEMDELEGATE.H
D:\QT\5.6\MSVC2015_64\INCLUDE\QTWIDGETS\QSTYLEOPTION.H
D:\QT\5.6\MSVC2015_64\INCLUDE\QTWIDGETS\QABSTRACTSPINBOX.H
D:\QT\5.6\MSVC2015_64\INCLUDE\QTGUI\QVALIDATOR.H
D:\QT\5.6\MSVC2015_64\INCLUDE\QTCORE\QREGULAREXPRESSION.H
D:\QT\5.6\MSVC2015_64\INCLUDE\QTWIDGETS\QSLIDER.H
D:\QT\5.6\MSVC2015_64\INCLUDE\QTWIDGETS\QABSTRACTSLIDER.H
D:\QT\5.6\MSVC2015_64\INCLUDE\QTWIDGETS\QSTYLE.H
D:\QT\5.6\MSVC2015_64\INCLUDE\QTWIDGETS\QTABBAR.H
D:\QT\5.6\MSVC2015_64\INCLUDE\QTWIDGETS\QRUBBERBAND.H
D:\QT\5.6\MSVC2015_64\INCLUDE\QTWIDGETS\QLABEL
D:\QT\5.6\MSVC2015_64\INCLUDE\QTWIDGETS\QLABEL.H
D:\QT\5.6\MSVC2015_64\INCLUDE\QTWIDGETS\QMENUBAR
D:\QT\5.6\MSVC2015_64\INCLUDE\QTWIDGETS\QMENUBAR.H
D:\QT\5.6\MSVC2015_64\INCLUDE\QTWIDGETS\QMENU.H
D:\QT\5.6\MSVC2015_64\INCLUDE\QTWIDGETS\QPUSHBUTTON
D:\QT\5.6\MSVC2015_64\INCLUDE\QTWIDGETS\QPUSHBUTTON.H
D:\QT\5.6\MSVC2015_64\INCLUDE\QTWIDGETS\QABSTRACTBUTTON.H
D:\QT\5.6\MSVC2015_64\INCLUDE\QTWIDGETS\QSTATUSBAR
D:\QT\5.6\MSVC2015_64\INCLUDE\QTWIDGETS\QSTATUSBAR.H
D:\QT\5.6\MSVC2015_64\INCLUDE\QTWIDGETS\QTEXTEDIT
D:\QT\5.6\MSVC2015_64\INCLUDE\QTWIDGETS\QTEXTEDIT.H
D:\QT\5.6\MSVC2015_64\INCLUDE\QTGUI\QTEXTDOCUMENT.H
D:\QT\5.6\MSVC2015_64\INCLUDE\QTCORE\QURL.H
D:\QT\5.6\MSVC2015_64\INCLUDE\QTGUI\QTEXTOPTION.H
D:\QT\5.6\MSVC2015_64\INCLUDE\QTGUI\QTEXTCURSOR.H
D:\QT\5.6\MSVC2015_64\INCLUDE\QTGUI\QTEXTFORMAT.H
D:\QT\5.6\MSVC2015_64\INCLUDE\QTGUI\QPEN.H
D:\QT\5.6\MSVC2015_64\INCLUDE\QTWIDGETS\QTOOLBAR
D:\QT\5.6\MSVC2015_64\INCLUDE\QTWIDGETS\QTOOLBAR.H
D:\QT\5.6\MSVC2015_64\INCLUDE\QTWIDGETS\QWIDGET
G:\CODE\QT\UI1\UI1\QRENCODE.H
D:\VS\VC\INCLUDE\IOSTREAM
D:\OPENCV\OPENCV\BUILD\INCLUDE\OPENCV\CV.H
D:\OPENCV\OPENCV\BUILD\INCLUDE\OPENCV2\CORE\CORE_C.H
D:\OPENCV\OPENCV\BUILD\INCLUDE\OPENCV2\CORE\TYPES_C.H
D:\OPENCV\OPENCV\BUILD\INCLUDE\OPENCV2\CORE\CVDEF.H
D:\OPENCV\OPENCV\BUILD\INCLUDE\OPENCV2\CORE\HAL\INTERFACE.H
C:\PROGRAM FILES (X86)\WINDOWS KITS\10\INCLUDE\10.0.10240.0\UCRT\ASSERT.H
D:\OPENCV\OPENCV\BUILD\INCLUDE\OPENCV2\CORE.HPP
D:\OPENCV\OPENCV\BUILD\INCLUDE\OPENCV2\CORE\VERSION.HPP
D:\OPENCV\OPENCV\BUILD\INCLUDE\OPENCV2\CORE\BASE.HPP
D:\OPENCV\OPENCV\BUILD\INCLUDE\OPENCV2\CORE\CVSTD.HPP
D:\VS\VC\INCLUDE\CCTYPE
D:\OPENCV\OPENCV\BUILD\INCLUDE\OPENCV2\CORE\PTR.INL.HPP
D:\OPENCV\OPENCV\BUILD\INCLUDE\OPENCV2\CORE\NEON_UTILS.HPP
D:\OPENCV\OPENCV\BUILD\INCLUDE\OPENCV2\CORE\TRAITS.HPP
D:\OPENCV\OPENCV\BUILD\INCLUDE\OPENCV2\CORE\MATX.HPP
D:\OPENCV\OPENCV\BUILD\INCLUDE\OPENCV2\CORE\SATURATE.HPP
D:\OPENCV\OPENCV\BUILD\INCLUDE\OPENCV2\CORE\FAST_MATH.HPP
D:\OPENCV\OPENCV\BUILD\INCLUDE\OPENCV2\CORE\TYPES.HPP
D:\OPENCV\OPENCV\BUILD\INCLUDE\OPENCV2\CORE\MAT.HPP
D:\OPENCV\OPENCV\BUILD\INCLUDE\OPENCV2\CORE\BUFFERPOOL.HPP
D:\OPENCV\OPENCV\BUILD\INCLUDE\OPENCV2\CORE\MAT.INL.HPP
D:\OPENCV\OPENCV\BUILD\INCLUDE\OPENCV2\CORE\PERSISTENCE.HPP
D:\OPENCV\OPENCV\BUILD\INCLUDE\OPENCV2\CORE\OPERATIONS.HPP
D:\OPENCV\OPENCV\BUILD\INCLUDE\OPENCV2\CORE\CVSTD.INL.HPP
D:\VS\VC\INCLUDE\COMPLEX
D:\VS\VC\INCLUDE\CCOMPLEX
D:\VS\VC\INCLUDE\SSTREAM
D:\VS\VC\INCLUDE\XCOMPLEX
D:\OPENCV\OPENCV\BUILD\INCLUDE\OPENCV2\CORE\UTILITY.HPP
D:\OPENCV\OPENCV\BUILD\INCLUDE\OPENCV2\CORE\OPTIM.HPP
D:\OPENCV\OPENCV\BUILD\INCLUDE\OPENCV2\IMGPROC\IMGPROC_C.H
D:\OPENCV\OPENCV\BUILD\INCLUDE\OPENCV2\IMGPROC\TYPES_C.H
D:\OPENCV\OPENCV\BUILD\INCLUDE\OPENCV2\PHOTO\PHOTO_C.H
D:\OPENCV\OPENCV\BUILD\INCLUDE\OPENCV2\VIDEO\TRACKING_C.H
D:\OPENCV\OPENCV\BUILD\INCLUDE\OPENCV2\OBJDETECT\OBJDETECT_C.H
D:\VS\VC\INCLUDE\DEQUE
D:\OPENCV\OPENCV\BUILD\INCLUDE\OPENCV2\HIGHGUI\HIGHGUI.HPP
D:\OPENCV\OPENCV\BUILD\INCLUDE\OPENCV2\HIGHGUI.HPP
D:\OPENCV\OPENCV\BUILD\INCLUDE\OPENCV2\IMGCODECS.HPP
D:\OPENCV\OPENCV\BUILD\INCLUDE\OPENCV2\VIDEOIO.HPP
D:\OPENCV\OPENCV\BUILD\INCLUDE\OPENCV2\HIGHGUI\HIGHGUI_C.H
D:\OPENCV\OPENCV\BUILD\INCLUDE\OPENCV2\IMGCODECS\IMGCODECS_C.H
D:\OPENCV\OPENCV\BUILD\INCLUDE\OPENCV2\VIDEOIO\VIDEOIO_C.H
D:\OPENCV\OPENCV\BUILD\INCLUDE\OPENCV2\OPENCV.HPP
D:\OPENCV\OPENCV\BUILD\INCLUDE\OPENCV2\IMGPROC.HPP
D:\OPENCV\OPENCV\BUILD\INCLUDE\OPENCV2\PHOTO.HPP
D:\OPENCV\OPENCV\BUILD\INCLUDE\OPENCV2\VIDEO.HPP
D:\OPENCV\OPENCV\BUILD\INCLUDE\OPENCV2\VIDEO\TRACKING.HPP
D:\OPENCV\OPENCV\BUILD\INCLUDE\OPENCV2\VIDEO\BACKGROUND_SEGM.HPP
D:\OPENCV\OPENCV\BUILD\INCLUDE\OPENCV2\FEATURES2D.HPP
D:\OPENCV\OPENCV\BUILD\INCLUDE\OPENCV2\FLANN\MINIFLANN.HPP
D:\OPENCV\OPENCV\BUILD\INCLUDE\OPENCV2\FLANN\DEFINES.H
D:\OPENCV\OPENCV\BUILD\INCLUDE\OPENCV2\FLANN\CONFIG.H
D:\OPENCV\OPENCV\BUILD\INCLUDE\OPENCV2\OBJDETECT.HPP
D:\OPENCV\OPENCV\BUILD\INCLUDE\OPENCV2\OBJDETECT\DETECTION_BASED_TRACKER.HPP
D:\OPENCV\OPENCV\BUILD\INCLUDE\OPENCV2\CALIB3D.HPP
D:\OPENCV\OPENCV\BUILD\INCLUDE\OPENCV2\CORE\AFFINE.HPP
D:\OPENCV\OPENCV\BUILD\INCLUDE\OPENCV2\CALIB3D\CALIB3D_C.H
D:\OPENCV\OPENCV\BUILD\INCLUDE\OPENCV2\ML.HPP
D:\VS\VC\INCLUDE\FSTREAM
D:\QT\5.6\MSVC2015_64\INCLUDE\QTCORE\QLIST
D:\QT\5.6\MSVC2015_64\INCLUDE\QTCORE\QTEXTSTREAM
D:\QT\5.6\MSVC2015_64\INCLUDE\QTCORE\QTEXTSTREAM.H
^G:\CODE\QT\UI1\UI1\UI1.CPP
C:\WINDOWS\GLOBALIZATION\SORTING\SORTDEFAULT.NLS
D:\VS\VC\BIN\X86_AMD64\2052\CLUI.DLL
C:\WINDOWS\SYSTEM32\TZRES.DLL
G:\CODE\QT\UI1\UI1\UI1.H
D:\QT\5.6\MSVC2015_64\INCLUDE\QTWIDGETS\QMAINWINDOW
D:\QT\5.6\MSVC2015_64\INCLUDE\QTWIDGETS\QMAINWINDOW.H
D:\QT\5.6\MSVC2015_64\INCLUDE\QTWIDGETS\QWIDGET.H
D:\QT\5.6\MSVC2015_64\INCLUDE\QTGUI\QWINDOWDEFS.H
D:\QT\5.6\MSVC2015_64\INCLUDE\QTCORE\QGLOBAL.H
D:\VS\VC\INCLUDE\CSTDDEF
D:\VS\VC\INCLUDE\YVALS.H
D:\VS\VC\INCLUDE\XKEYCHECK.H
D:\VS\VC\INCLUDE\CRTDEFS.H
D:\VS\VC\INCLUDE\VCRUNTIME.H
D:\VS\VC\INCLUDE\SAL.H
D:\VS\VC\INCLUDE\CONCURRENCYSAL.H
D:\VS\VC\INCLUDE\VADEFS.H
C:\PROGRAM FILES (X86)\WINDOWS KITS\10\INCLUDE\10.0.10240.0\UCRT\CORECRT.H
D:\VS\VC\INCLUDE\USE_ANSI.H
C:\PROGRAM FILES (X86)\WINDOWS KITS\10\INCLUDE\10.0.10240.0\UCRT\STDDEF.H
D:\QT\5.6\MSVC2015_64\INCLUDE\QTCORE\QCONFIG.H
D:\QT\5.6\MSVC2015_64\INCLUDE\QTCORE\QFEATURES.H
D:\QT\5.6\MSVC2015_64\INCLUDE\QTCORE\QSYSTEMDETECTION.H
D:\QT\5.6\MSVC2015_64\INCLUDE\QTCORE\QPROCESSORDETECTION.H
D:\QT\5.6\MSVC2015_64\INCLUDE\QTCORE\QCOMPILERDETECTION.H
D:\VS\VC\INCLUDE\UTILITY
D:\VS\VC\INCLUDE\XSTDDEF
D:\VS\VC\INCLUDE\CSTDLIB
C:\PROGRAM FILES (X86)\WINDOWS KITS\10\INCLUDE\10.0.10240.0\UCRT\STDLIB.H
C:\PROGRAM FILES (X86)\WINDOWS KITS\10\INCLUDE\10.0.10240.0\UCRT\CORECRT_MALLOC.H
C:\PROGRAM FILES (X86)\WINDOWS KITS\10\INCLUDE\10.0.10240.0\UCRT\CORECRT_SEARCH.H
C:\PROGRAM FILES (X86)\WINDOWS KITS\10\INCLUDE\10.0.10240.0\UCRT\CORECRT_WSTDLIB.H
D:\VS\VC\INCLUDE\LIMITS.H
D:\VS\VC\INCLUDE\INITIALIZER_LIST
D:\VS\VC\INCLUDE\XTR1COMMON
D:\VS\VC\INCLUDE\IOSFWD
D:\VS\VC\INCLUDE\CSTDIO
C:\PROGRAM FILES (X86)\WINDOWS KITS\10\INCLUDE\10.0.10240.0\UCRT\STDIO.H
C:\PROGRAM FILES (X86)\WINDOWS KITS\10\INCLUDE\10.0.10240.0\UCRT\CORECRT_WSTDIO.H
C:\PROGRAM FILES (X86)\WINDOWS KITS\10\INCLUDE\10.0.10240.0\UCRT\CORECRT_STDIO_CONFIG.H
D:\VS\VC\INCLUDE\CSTRING
C:\PROGRAM FILES (X86)\WINDOWS KITS\10\INCLUDE\10.0.10240.0\UCRT\STRING.H
C:\PROGRAM FILES (X86)\WINDOWS KITS\10\INCLUDE\10.0.10240.0\UCRT\CORECRT_MEMORY.H
C:\PROGRAM FILES (X86)\WINDOWS KITS\10\INCLUDE\10.0.10240.0\UCRT\CORECRT_MEMCPY_S.H
C:\PROGRAM FILES (X86)\WINDOWS KITS\10\INCLUDE\10.0.10240.0\UCRT\ERRNO.H
D:\VS\VC\INCLUDE\VCRUNTIME_STRING.H
C:\PROGRAM FILES (X86)\WINDOWS KITS\10\INCLUDE\10.0.10240.0\UCRT\CORECRT_WSTRING.H
D:\VS\VC\INCLUDE\CWCHAR
C:\PROGRAM FILES (X86)\WINDOWS KITS\10\INCLUDE\10.0.10240.0\UCRT\WCHAR.H
C:\PROGRAM FILES (X86)\WINDOWS KITS\10\INCLUDE\10.0.10240.0\UCRT\CORECRT_WCONIO.H
C:\PROGRAM FILES (X86)\WINDOWS KITS\10\INCLUDE\10.0.10240.0\UCRT\CORECRT_WCTYPE.H
C:\PROGRAM FILES (X86)\WINDOWS KITS\10\INCLUDE\10.0.10240.0\UCRT\CORECRT_WDIRECT.H
C:\PROGRAM FILES (X86)\WINDOWS KITS\10\INCLUDE\10.0.10240.0\UCRT\CORECRT_WIO.H
C:\PROGRAM FILES (X86)\WINDOWS KITS\10\INCLUDE\10.0.10240.0\UCRT\CORECRT_SHARE.H
C:\PROGRAM FILES (X86)\WINDOWS KITS\10\INCLUDE\10.0.10240.0\UCRT\CORECRT_WPROCESS.H
C:\PROGRAM FILES (X86)\WINDOWS KITS\10\INCLUDE\10.0.10240.0\UCRT\CORECRT_WTIME.H
C:\PROGRAM FILES (X86)\WINDOWS KITS\10\INCLUDE\10.0.10240.0\UCRT\SYS\STAT.H
C:\PROGRAM FILES (X86)\WINDOWS KITS\10\INCLUDE\10.0.10240.0\UCRT\SYS\TYPES.H
C:\PROGRAM FILES (X86)\WINDOWS KITS\10\INCLUDE\10.0.10240.0\UCRT\CRTDBG.H
D:\VS\VC\INCLUDE\VCRUNTIME_NEW_DEBUG.H
D:\VS\VC\INCLUDE\VCRUNTIME_NEW.H
D:\VS\VC\INCLUDE\TYPE_TRAITS
D:\VS\VC\INCLUDE\ALGORITHM
D:\VS\VC\INCLUDE\XMEMORY
D:\VS\VC\INCLUDE\XMEMORY0
D:\VS\VC\INCLUDE\CSTDINT
D:\VS\VC\INCLUDE\STDINT.H
D:\VS\VC\INCLUDE\LIMITS
D:\VS\VC\INCLUDE\YMATH.H
D:\VS\VC\INCLUDE\CFLOAT
C:\PROGRAM FILES (X86)\WINDOWS KITS\10\INCLUDE\10.0.10240.0\UCRT\FLOAT.H
D:\VS\VC\INCLUDE\CLIMITS
D:\VS\VC\INCLUDE\CMATH
C:\PROGRAM FILES (X86)\WINDOWS KITS\10\INCLUDE\10.0.10240.0\UCRT\MATH.H
D:\VS\VC\INCLUDE\XTGMATH.H
D:\VS\VC\INCLUDE\NEW
D:\VS\VC\INCLUDE\EXCEPTION
C:\PROGRAM FILES (X86)\WINDOWS KITS\10\INCLUDE\10.0.10240.0\UCRT\MALLOC.H
D:\VS\VC\INCLUDE\VCRUNTIME_EXCEPTION.H
D:\VS\VC\INCLUDE\EH.H
C:\PROGRAM FILES (X86)\WINDOWS KITS\10\INCLUDE\10.0.10240.0\UCRT\CORECRT_TERMINATE.H
D:\VS\VC\INCLUDE\XUTILITY
D:\VS\VC\INCLUDE\XATOMIC0.H
D:\VS\VC\INCLUDE\INTRIN.H
D:\VS\VC\INCLUDE\SETJMP.H
D:\VS\VC\INCLUDE\IMMINTRIN.H
D:\VS\VC\INCLUDE\WMMINTRIN.H
D:\VS\VC\INCLUDE\NMMINTRIN.H
D:\VS\VC\INCLUDE\SMMINTRIN.H
D:\VS\VC\INCLUDE\TMMINTRIN.H
D:\VS\VC\INCLUDE\PMMINTRIN.H
D:\VS\VC\INCLUDE\EMMINTRIN.H
D:\VS\VC\INCLUDE\XMMINTRIN.H
D:\VS\VC\INCLUDE\MMINTRIN.H
D:\VS\VC\INCLUDE\AMMINTRIN.H
D:\QT\5.6\MSVC2015_64\INCLUDE\QTCORE\QTYPEINFO.H
D:\QT\5.6\MSVC2015_64\INCLUDE\QTCORE\QTYPETRAITS.H
D:\QT\5.6\MSVC2015_64\INCLUDE\QTCORE\QISENUM.H
D:\QT\5.6\MSVC2015_64\INCLUDE\QTCORE\QSYSINFO.H
D:\QT\5.6\MSVC2015_64\INCLUDE\QTCORE\QLOGGING.H
D:\QT\5.6\MSVC2015_64\INCLUDE\QTCORE\QFLAGS.H
D:\QT\5.6\MSVC2015_64\INCLUDE\QTCORE\QATOMIC.H
D:\QT\5.6\MSVC2015_64\INCLUDE\QTCORE\QBASICATOMIC.H
D:\QT\5.6\MSVC2015_64\INCLUDE\QTCORE\QATOMIC_MSVC.H
D:\QT\5.6\MSVC2015_64\INCLUDE\QTCORE\QGENERICATOMIC.H
D:\QT\5.6\MSVC2015_64\INCLUDE\QTCORE\QGLOBALSTATIC.H
D:\QT\5.6\MSVC2015_64\INCLUDE\QTCORE\QNUMERIC.H
D:\QT\5.6\MSVC2015_64\INCLUDE\QTCORE\QVERSIONTAGGING.H
D:\QT\5.6\MSVC2015_64\INCLUDE\QTCORE\QOBJECTDEFS.H
D:\QT\5.6\MSVC2015_64\INCLUDE\QTCORE\QNAMESPACE.H
D:\QT\5.6\MSVC2015_64\INCLUDE\QTCORE\QOBJECTDEFS_IMPL.H
D:\QT\5.6\MSVC2015_64\INCLUDE\QTGUI\QWINDOWDEFS_WIN.H
D:\QT\5.6\MSVC2015_64\INCLUDE\QTCORE\QOBJECT.H
D:\QT\5.6\MSVC2015_64\INCLUDE\QTCORE\QSTRING.H
D:\QT\5.6\MSVC2015_64\INCLUDE\QTCORE\QCHAR.H
D:\QT\5.6\MSVC2015_64\INCLUDE\QTCORE\QBYTEARRAY.H
D:\QT\5.6\MSVC2015_64\INCLUDE\QTCORE\QREFCOUNT.H
D:\QT\5.6\MSVC2015_64\INCLUDE\QTCORE\QARRAYDATA.H
D:\VS\VC\INCLUDE\STDARG.H
D:\VS\VC\INCLUDE\STRING
D:\VS\VC\INCLUDE\ISTREAM
D:\VS\VC\INCLUDE\OSTREAM
D:\VS\VC\INCLUDE\IOS
D:\VS\VC\INCLUDE\XLOCNUM
D:\VS\VC\INCLUDE\STREAMBUF
D:\VS\VC\INCLUDE\XIOSBASE
D:\VS\VC\INCLUDE\XLOCALE
D:\VS\VC\INCLUDE\STDEXCEPT
D:\VS\VC\INCLUDE\XSTRING
D:\VS\VC\INCLUDE\TYPEINFO
D:\VS\VC\INCLUDE\VCRUNTIME_TYPEINFO.H
D:\VS\VC\INCLUDE\XLOCINFO
D:\VS\VC\INCLUDE\XLOCINFO.H
C:\PROGRAM FILES (X86)\WINDOWS KITS\10\INCLUDE\10.0.10240.0\UCRT\CTYPE.H
C:\PROGRAM FILES (X86)\WINDOWS KITS\10\INCLUDE\10.0.10240.0\UCRT\LOCALE.H
D:\VS\VC\INCLUDE\XFACET
D:\VS\VC\INCLUDE\SYSTEM_ERROR
D:\VS\VC\INCLUDE\CERRNO
C:\PROGRAM FILES (X86)\WINDOWS KITS\10\INCLUDE\10.0.10240.0\UCRT\SHARE.H
D:\VS\VC\INCLUDE\ITERATOR
D:\QT\5.6\MSVC2015_64\INCLUDE\QTCORE\QLIST.H
D:\QT\5.6\MSVC2015_64\INCLUDE\QTCORE\QALGORITHMS.H
D:\QT\5.6\MSVC2015_64\INCLUDE\QTCORE\QITERATOR.H
D:\QT\5.6\MSVC2015_64\INCLUDE\QTCORE\QHASHFUNCTIONS.H
D:\QT\5.6\MSVC2015_64\INCLUDE\QTCORE\QPAIR.H
D:\VS\VC\INCLUDE\NUMERIC
D:\VS\VC\INCLUDE\LIST
D:\QT\5.6\MSVC2015_64\INCLUDE\QTCORE\QBYTEARRAYLIST.H
D:\QT\5.6\MSVC2015_64\INCLUDE\QTCORE\QSTRINGLIST.H
D:\QT\5.6\MSVC2015_64\INCLUDE\QTCORE\QREGEXP.H
D:\QT\5.6\MSVC2015_64\INCLUDE\QTCORE\QSTRINGMATCHER.H
D:\QT\5.6\MSVC2015_64\INCLUDE\QTCORE\QSCOPEDPOINTER.H
D:\QT\5.6\MSVC2015_64\INCLUDE\QTCORE\QMETATYPE.H
D:\QT\5.6\MSVC2015_64\INCLUDE\QTCORE\QVARLENGTHARRAY.H
D:\QT\5.6\MSVC2015_64\INCLUDE\QTCORE\QCONTAINERFWD.H
D:\VS\VC\INCLUDE\VECTOR
D:\VS\VC\INCLUDE\MAP
D:\VS\VC\INCLUDE\TUPLE
D:\VS\VC\INCLUDE\XTREE
D:\QT\5.6\MSVC2015_64\INCLUDE\QTCORE\QOBJECT_IMPL.H
D:\QT\5.6\MSVC2015_64\INCLUDE\QTCORE\QMARGINS.H
D:\QT\5.6\MSVC2015_64\INCLUDE\QTGUI\QPAINTDEVICE.H
D:\QT\5.6\MSVC2015_64\INCLUDE\QTCORE\QRECT.H
D:\QT\5.6\MSVC2015_64\INCLUDE\QTCORE\QSIZE.H
D:\QT\5.6\MSVC2015_64\INCLUDE\QTCORE\QPOINT.H
D:\QT\5.6\MSVC2015_64\INCLUDE\QTGUI\QPALETTE.H
D:\QT\5.6\MSVC2015_64\INCLUDE\QTGUI\QCOLOR.H
D:\QT\5.6\MSVC2015_64\INCLUDE\QTGUI\QRGB.H
D:\QT\5.6\MSVC2015_64\INCLUDE\QTGUI\QRGBA64.H
D:\QT\5.6\MSVC2015_64\INCLUDE\QTGUI\QBRUSH.H
D:\QT\5.6\MSVC2015_64\INCLUDE\QTCORE\QVECTOR.H
D:\QT\5.6\MSVC2015_64\INCLUDE\QTGUI\QMATRIX.H
D:\QT\5.6\MSVC2015_64\INCLUDE\QTGUI\QPOLYGON.H
D:\QT\5.6\MSVC2015_64\INCLUDE\QTGUI\QREGION.H
D:\QT\5.6\MSVC2015_64\INCLUDE\QTCORE\QDATASTREAM.H
D:\QT\5.6\MSVC2015_64\INCLUDE\QTCORE\QIODEVICE.H
D:\QT\5.6\MSVC2015_64\INCLUDE\QTCORE\QLINE.H
D:\QT\5.6\MSVC2015_64\INCLUDE\QTGUI\QTRANSFORM.H
D:\QT\5.6\MSVC2015_64\INCLUDE\QTGUI\QPAINTERPATH.H
D:\QT\5.6\MSVC2015_64\INCLUDE\QTGUI\QIMAGE.H
D:\QT\5.6\MSVC2015_64\INCLUDE\QTGUI\QPIXELFORMAT.H
D:\QT\5.6\MSVC2015_64\INCLUDE\QTGUI\QPIXMAP.H
D:\QT\5.6\MSVC2015_64\INCLUDE\QTCORE\QSHAREDPOINTER.H
D:\QT\5.6\MSVC2015_64\INCLUDE\QTCORE\QSHAREDDATA.H
D:\QT\5.6\MSVC2015_64\INCLUDE\QTCORE\QHASH.H
D:\QT\5.6\MSVC2015_64\INCLUDE\QTCORE\QSHAREDPOINTER_IMPL.H
D:\QT\5.6\MSVC2015_64\INCLUDE\QTGUI\QFONT.H
D:\QT\5.6\MSVC2015_64\INCLUDE\QTGUI\QFONTMETRICS.H
D:\QT\5.6\MSVC2015_64\INCLUDE\QTGUI\QFONTINFO.H
D:\QT\5.6\MSVC2015_64\INCLUDE\QTWIDGETS\QSIZEPOLICY.H
D:\QT\5.6\MSVC2015_64\INCLUDE\QTGUI\QCURSOR.H
D:\QT\5.6\MSVC2015_64\INCLUDE\QTGUI\QKEYSEQUENCE.H
D:\QT\5.6\MSVC2015_64\INCLUDE\QTWIDGETS\QTABWIDGET.H
D:\QT\5.6\MSVC2015_64\INCLUDE\QTGUI\QICON.H
G:\CODE\QT\UI1\UI1\GENERATEDFILES\UI_UI1.H
D:\QT\5.6\MSVC2015_64\INCLUDE\QTCORE\QVARIANT
D:\QT\5.6\MSVC2015_64\INCLUDE\QTCORE\QVARIANT.H
D:\QT\5.6\MSVC2015_64\INCLUDE\QTCORE\QMAP.H
D:\QT\5.6\MSVC2015_64\INCLUDE\QTWIDGETS\QACTION
D:\QT\5.6\MSVC2015_64\INCLUDE\QTWIDGETS\QACTION.H
D:\QT\5.6\MSVC2015_64\INCLUDE\QTWIDGETS\QACTIONGROUP.H
D:\QT\5.6\MSVC2015_64\INCLUDE\QTWIDGETS\QAPPLICATION
D:\QT\5.6\MSVC2015_64\INCLUDE\QTWIDGETS\QAPPLICATION.H
D:\QT\5.6\MSVC2015_64\INCLUDE\QTCORE\QCOREAPPLICATION.H
D:\QT\5.6\MSVC2015_64\INCLUDE\QTCORE\QCOREEVENT.H
D:\QT\5.6\MSVC2015_64\INCLUDE\QTCORE\QEVENTLOOP.H
D:\QT\5.6\MSVC2015_64\INCLUDE\QTGUI\QGUIAPPLICATION.H
D:\QT\5.6\MSVC2015_64\INCLUDE\QTGUI\QINPUTMETHOD.H
D:\QT\5.6\MSVC2015_64\INCLUDE\QTCORE\QLOCALE.H
D:\QT\5.6\MSVC2015_64\INCLUDE\QTWIDGETS\QBUTTONGROUP
D:\QT\5.6\MSVC2015_64\INCLUDE\QTWIDGETS\QBUTTONGROUP.H
D:\QT\5.6\MSVC2015_64\INCLUDE\QTWIDGETS\QHEADERVIEW
D:\QT\5.6\MSVC2015_64\INCLUDE\QTWIDGETS\QHEADERVIEW.H
D:\QT\5.6\MSVC2015_64\INCLUDE\QTWIDGETS\QABSTRACTITEMVIEW.H
D:\QT\5.6\MSVC2015_64\INCLUDE\QTWIDGETS\QABSTRACTSCROLLAREA.H
D:\QT\5.6\MSVC2015_64\INCLUDE\QTWIDGETS\QFRAME.H
D:\QT\5.6\MSVC2015_64\INCLUDE\QTCORE\QABSTRACTITEMMODEL.H
D:\QT\5.6\MSVC2015_64\INCLUDE\QTCORE\QITEMSELECTIONMODEL.H
D:\QT\5.6\MSVC2015_64\INCLUDE\QTCORE\QSET.H
D:\QT\5.6\MSVC2015_64\INCLUDE\QTWIDGETS\QABSTRACTITEMDELEGATE.H
D:\QT\5.6\MSVC2015_64\INCLUDE\QTWIDGETS\QSTYLEOPTION.H
D:\QT\5.6\MSVC2015_64\INCLUDE\QTWIDGETS\QABSTRACTSPINBOX.H
D:\QT\5.6\MSVC2015_64\INCLUDE\QTGUI\QVALIDATOR.H
D:\QT\5.6\MSVC2015_64\INCLUDE\QTCORE\QREGULAREXPRESSION.H
D:\QT\5.6\MSVC2015_64\INCLUDE\QTWIDGETS\QSLIDER.H
D:\QT\5.6\MSVC2015_64\INCLUDE\QTWIDGETS\QABSTRACTSLIDER.H
D:\QT\5.6\MSVC2015_64\INCLUDE\QTWIDGETS\QSTYLE.H
D:\QT\5.6\MSVC2015_64\INCLUDE\QTWIDGETS\QTABBAR.H
D:\QT\5.6\MSVC2015_64\INCLUDE\QTWIDGETS\QRUBBERBAND.H
D:\QT\5.6\MSVC2015_64\INCLUDE\QTWIDGETS\QLABEL
D:\QT\5.6\MSVC2015_64\INCLUDE\QTWIDGETS\QLABEL.H
D:\QT\5.6\MSVC2015_64\INCLUDE\QTWIDGETS\QMENUBAR
D:\QT\5.6\MSVC2015_64\INCLUDE\QTWIDGETS\QMENUBAR.H
D:\QT\5.6\MSVC2015_64\INCLUDE\QTWIDGETS\QMENU.H
D:\QT\5.6\MSVC2015_64\INCLUDE\QTWIDGETS\QPUSHBUTTON
D:\QT\5.6\MSVC2015_64\INCLUDE\QTWIDGETS\QPUSHBUTTON.H
D:\QT\5.6\MSVC2015_64\INCLUDE\QTWIDGETS\QABSTRACTBUTTON.H
D:\QT\5.6\MSVC2015_64\INCLUDE\QTWIDGETS\QSTATUSBAR
D:\QT\5.6\MSVC2015_64\INCLUDE\QTWIDGETS\QSTATUSBAR.H
D:\QT\5.6\MSVC2015_64\INCLUDE\QTWIDGETS\QTEXTEDIT
D:\QT\5.6\MSVC2015_64\INCLUDE\QTWIDGETS\QTEXTEDIT.H
D:\QT\5.6\MSVC2015_64\INCLUDE\QTGUI\QTEXTDOCUMENT.H
D:\QT\5.6\MSVC2015_64\INCLUDE\QTCORE\QURL.H
D:\QT\5.6\MSVC2015_64\INCLUDE\QTGUI\QTEXTOPTION.H
D:\QT\5.6\MSVC2015_64\INCLUDE\QTGUI\QTEXTCURSOR.H
D:\QT\5.6\MSVC2015_64\INCLUDE\QTGUI\QTEXTFORMAT.H
D:\QT\5.6\MSVC2015_64\INCLUDE\QTGUI\QPEN.H
D:\QT\5.6\MSVC2015_64\INCLUDE\QTWIDGETS\QTOOLBAR
D:\QT\5.6\MSVC2015_64\INCLUDE\QTWIDGETS\QTOOLBAR.H
D:\QT\5.6\MSVC2015_64\INCLUDE\QTWIDGETS\QWIDGET
G:\CODE\QT\UI1\UI1\QRENCODE.H
D:\VS\VC\INCLUDE\IOSTREAM
D:\OPENCV\OPENCV\BUILD\INCLUDE\OPENCV\CV.H
D:\OPENCV\OPENCV\BUILD\INCLUDE\OPENCV2\CORE\CORE_C.H
D:\OPENCV\OPENCV\BUILD\INCLUDE\OPENCV2\CORE\TYPES_C.H
D:\OPENCV\OPENCV\BUILD\INCLUDE\OPENCV2\CORE\CVDEF.H
D:\OPENCV\OPENCV\BUILD\INCLUDE\OPENCV2\CORE\HAL\INTERFACE.H
C:\PROGRAM FILES (X86)\WINDOWS KITS\10\INCLUDE\10.0.10240.0\UCRT\ASSERT.H
D:\OPENCV\OPENCV\BUILD\INCLUDE\OPENCV2\CORE.HPP
D:\OPENCV\OPENCV\BUILD\INCLUDE\OPENCV2\CORE\VERSION.HPP
D:\OPENCV\OPENCV\BUILD\INCLUDE\OPENCV2\CORE\BASE.HPP
D:\OPENCV\OPENCV\BUILD\INCLUDE\OPENCV2\CORE\CVSTD.HPP
D:\VS\VC\INCLUDE\CCTYPE
D:\OPENCV\OPENCV\BUILD\INCLUDE\OPENCV2\CORE\PTR.INL.HPP
D:\OPENCV\OPENCV\BUILD\INCLUDE\OPENCV2\CORE\NEON_UTILS.HPP
D:\OPENCV\OPENCV\BUILD\INCLUDE\OPENCV2\CORE\TRAITS.HPP
D:\OPENCV\OPENCV\BUILD\INCLUDE\OPENCV2\CORE\MATX.HPP
D:\OPENCV\OPENCV\BUILD\INCLUDE\OPENCV2\CORE\SATURATE.HPP
D:\OPENCV\OPENCV\BUILD\INCLUDE\OPENCV2\CORE\FAST_MATH.HPP
D:\OPENCV\OPENCV\BUILD\INCLUDE\OPENCV2\CORE\TYPES.HPP
D:\OPENCV\OPENCV\BUILD\INCLUDE\OPENCV2\CORE\MAT.HPP
D:\OPENCV\OPENCV\BUILD\INCLUDE\OPENCV2\CORE\BUFFERPOOL.HPP
D:\OPENCV\OPENCV\BUILD\INCLUDE\OPENCV2\CORE\MAT.INL.HPP
D:\OPENCV\OPENCV\BUILD\INCLUDE\OPENCV2\CORE\PERSISTENCE.HPP
D:\OPENCV\OPENCV\BUILD\INCLUDE\OPENCV2\CORE\OPERATIONS.HPP
D:\OPENCV\OPENCV\BUILD\INCLUDE\OPENCV2\CORE\CVSTD.INL.HPP
D:\VS\VC\INCLUDE\COMPLEX
D:\VS\VC\INCLUDE\CCOMPLEX
D:\VS\VC\INCLUDE\SSTREAM
D:\VS\VC\INCLUDE\XCOMPLEX
D:\OPENCV\OPENCV\BUILD\INCLUDE\OPENCV2\CORE\UTILITY.HPP
D:\OPENCV\OPENCV\BUILD\INCLUDE\OPENCV2\CORE\OPTIM.HPP
D:\OPENCV\OPENCV\BUILD\INCLUDE\OPENCV2\IMGPROC\IMGPROC_C.H
D:\OPENCV\OPENCV\BUILD\INCLUDE\OPENCV2\IMGPROC\TYPES_C.H
D:\OPENCV\OPENCV\BUILD\INCLUDE\OPENCV2\PHOTO\PHOTO_C.H
D:\OPENCV\OPENCV\BUILD\INCLUDE\OPENCV2\VIDEO\TRACKING_C.H
D:\OPENCV\OPENCV\BUILD\INCLUDE\OPENCV2\OBJDETECT\OBJDETECT_C.H
D:\VS\VC\INCLUDE\DEQUE
D:\OPENCV\OPENCV\BUILD\INCLUDE\OPENCV2\HIGHGUI\HIGHGUI.HPP
D:\OPENCV\OPENCV\BUILD\INCLUDE\OPENCV2\HIGHGUI.HPP
D:\OPENCV\OPENCV\BUILD\INCLUDE\OPENCV2\IMGCODECS.HPP
D:\OPENCV\OPENCV\BUILD\INCLUDE\OPENCV2\VIDEOIO.HPP
D:\OPENCV\OPENCV\BUILD\INCLUDE\OPENCV2\HIGHGUI\HIGHGUI_C.H
D:\OPENCV\OPENCV\BUILD\INCLUDE\OPENCV2\IMGCODECS\IMGCODECS_C.H
D:\OPENCV\OPENCV\BUILD\INCLUDE\OPENCV2\VIDEOIO\VIDEOIO_C.H
D:\OPENCV\OPENCV\BUILD\INCLUDE\OPENCV2\OPENCV.HPP
D:\OPENCV\OPENCV\BUILD\INCLUDE\OPENCV2\IMGPROC.HPP
D:\OPENCV\OPENCV\BUILD\INCLUDE\OPENCV2\PHOTO.HPP
D:\OPENCV\OPENCV\BUILD\INCLUDE\OPENCV2\VIDEO.HPP
D:\OPENCV\OPENCV\BUILD\INCLUDE\OPENCV2\VIDEO\TRACKING.HPP
D:\OPENCV\OPENCV\BUILD\INCLUDE\OPENCV2\VIDEO\BACKGROUND_SEGM.HPP
D:\OPENCV\OPENCV\BUILD\INCLUDE\OPENCV2\FEATURES2D.HPP
D:\OPENCV\OPENCV\BUILD\INCLUDE\OPENCV2\FLANN\MINIFLANN.HPP
D:\OPENCV\OPENCV\BUILD\INCLUDE\OPENCV2\FLANN\DEFINES.H
D:\OPENCV\OPENCV\BUILD\INCLUDE\OPENCV2\FLANN\CONFIG.H
D:\OPENCV\OPENCV\BUILD\INCLUDE\OPENCV2\OBJDETECT.HPP
D:\OPENCV\OPENCV\BUILD\INCLUDE\OPENCV2\OBJDETECT\DETECTION_BASED_TRACKER.HPP
D:\OPENCV\OPENCV\BUILD\INCLUDE\OPENCV2\CALIB3D.HPP
D:\OPENCV\OPENCV\BUILD\INCLUDE\OPENCV2\CORE\AFFINE.HPP
D:\OPENCV\OPENCV\BUILD\INCLUDE\OPENCV2\CALIB3D\CALIB3D_C.H
D:\OPENCV\OPENCV\BUILD\INCLUDE\OPENCV2\ML.HPP
D:\QT\5.6\MSVC2015_64\INCLUDE\QTGUI\QPAINTER
D:\QT\5.6\MSVC2015_64\INCLUDE\QTGUI\QPAINTER.H
D:\QT\5.6\MSVC2015_64\INCLUDE\QTGUI\QIMAGE
D:\VS\VC\INCLUDE\FSTREAM
D:\VS\VC\INCLUDE\IOMANIP
D:\VS\VC\INCLUDE\XLOCMON
D:\VS\VC\INCLUDE\XLOCTIME
D:\VS\VC\INCLUDE\CTIME
C:\PROGRAM FILES (X86)\WINDOWS KITS\10\INCLUDE\10.0.10240.0\UCRT\TIME.H
D:\QT\5.6\MSVC2015_64\INCLUDE\QTWIDGETS\QMOUSEEVENTTRANSITION.H
D:\QT\5.6\MSVC2015_64\INCLUDE\QTCORE\QEVENTTRANSITION.H
D:\QT\5.6\MSVC2015_64\INCLUDE\QTCORE\QABSTRACTTRANSITION.H
D:\QT\5.6\MSVC2015_64\INCLUDE\QTGUI\QMOUSEEVENT
D:\QT\5.6\MSVC2015_64\INCLUDE\QTGUI\QEVENT.H
D:\QT\5.6\MSVC2015_64\INCLUDE\QTCORE\QFILE.H
D:\QT\5.6\MSVC2015_64\INCLUDE\QTCORE\QFILEDEVICE.H
D:\QT\5.6\MSVC2015_64\INCLUDE\QTGUI\QVECTOR2D.H
D:\QT\5.6\MSVC2015_64\INCLUDE\QTGUI\QTOUCHDEVICE.H
D:\OPENCV\OPENCV\BUILD\INCLUDE\OPENCV\CV.HPP
