^C:\USERS\LIJIAN\DESKTOP\新建文件夹\BITSTREAM.C|C:\USERS\LIJIAN\DESKTOP\新建文件夹\MASK.C|C:\USERS\LIJIAN\DESKTOP\新建文件夹\MMASK.C|C:\USERS\LIJIAN\DESKTOP\新建文件夹\MQRSPEC.C|C:\USERS\LIJIAN\DESKTOP\新建文件夹\QRENCODE.C|C:\USERS\LIJIAN\DESKTOP\新建文件夹\QRINPUT.C|C:\USERS\LIJIAN\DESKTOP\新建文件夹\QRSPEC.C|C:\USERS\LIJIAN\DESKTOP\新建文件夹\RSECC.C|C:\USERS\LIJIAN\DESKTOP\新建文件夹\SPLIT.C
G:\CODE\QT\UI1\UI1\X64\RELEASE\SPLIT.OBJ
G:\CODE\QT\UI1\UI1\X64\RELEASE\RSECC.OBJ
G:\CODE\QT\UI1\UI1\X64\RELEASE\QRSPEC.OBJ
G:\CODE\QT\UI1\UI1\X64\RELEASE\QRINPUT.OBJ
G:\CODE\QT\UI1\UI1\X64\RELEASE\QRENCODE.OBJ
G:\CODE\QT\UI1\UI1\X64\RELEASE\MQRSPEC.OBJ
G:\CODE\QT\UI1\UI1\X64\RELEASE\MMASK.OBJ
G:\CODE\QT\UI1\UI1\X64\RELEASE\MASK.OBJ
G:\CODE\QT\UI1\UI1\X64\RELEASE\BITSTREAM.OBJ
^C:\USERS\LIJIAN\DESKTOP\新建文件夹\BITSTREAM.C|C:\USERS\LIJIAN\DESKTOP\新建文件夹\MASK.C|C:\USERS\LIJIAN\DESKTOP\新建文件夹\QRENCODE.C|C:\USERS\LIJIAN\DESKTOP\新建文件夹\QRINPUT.C|C:\USERS\LIJIAN\DESKTOP\新建文件夹\QRSPEC.C|C:\USERS\LIJIAN\DESKTOP\新建文件夹\SPLIT.C
G:\CODE\QT\UI1\UI1\X64\RELEASE\SPLIT.OBJ
G:\CODE\QT\UI1\UI1\X64\RELEASE\QRSPEC.OBJ
G:\CODE\QT\UI1\UI1\X64\RELEASE\QRINPUT.OBJ
G:\CODE\QT\UI1\UI1\X64\RELEASE\QRENCODE.OBJ
G:\CODE\QT\UI1\UI1\X64\RELEASE\MASK.OBJ
G:\CODE\QT\UI1\UI1\X64\RELEASE\BITSTREAM.OBJ
^G:\CODE\QT\UI1\UI1\BITSTREAM.C|G:\CODE\QT\UI1\UI1\MASK.C|G:\CODE\QT\UI1\UI1\MMASK.C|G:\CODE\QT\UI1\UI1\MQRSPEC.C|G:\CODE\QT\UI1\UI1\QRENCODE.C|G:\CODE\QT\UI1\UI1\QRINPUT.C|G:\CODE\QT\UI1\UI1\QRSPEC.C|G:\CODE\QT\UI1\UI1\RSECC.C|G:\CODE\QT\UI1\UI1\SPLIT.C
G:\CODE\QT\UI1\UI1\X64\RELEASE\SPLIT.OBJ
G:\CODE\QT\UI1\UI1\X64\RELEASE\RSECC.OBJ
G:\CODE\QT\UI1\UI1\X64\RELEASE\QRSPEC.OBJ
G:\CODE\QT\UI1\UI1\X64\RELEASE\QRINPUT.OBJ
G:\CODE\QT\UI1\UI1\X64\RELEASE\QRENCODE.OBJ
G:\CODE\QT\UI1\UI1\X64\RELEASE\MQRSPEC.OBJ
G:\CODE\QT\UI1\UI1\X64\RELEASE\MMASK.OBJ
G:\CODE\QT\UI1\UI1\X64\RELEASE\MASK.OBJ
G:\CODE\QT\UI1\UI1\X64\RELEASE\BITSTREAM.OBJ
^G:\CODE\QT\UI1\UI1\GENERATEDFILES\QRC_UI1.CPP
G:\CODE\QT\UI1\UI1\X64\RELEASE\QRC_UI1.OBJ
^G:\CODE\QT\UI1\UI1\GENERATEDFILES\RELEASE\MOC_UI1.CPP|G:\CODE\QT\UI1\UI1\MAIN.CPP|G:\CODE\QT\UI1\UI1\UI1.CPP
G:\CODE\QT\UI1\UI1\X64\RELEASE\UI1.OBJ
G:\CODE\QT\UI1\UI1\X64\RELEASE\MAIN.OBJ
G:\CODE\QT\UI1\UI1\X64\RELEASE\MOC_UI1.OBJ
^G:\CODE\QT\UI1\UI1\UI1.CPP
G:\CODE\QT\UI1\UI1\X64\RELEASE\UI1.OBJ
